WindCodes,INDUSTRY_SW,SEC_NAME
000001.SZ,银行,平安银行
000002.SZ,房地产,万科A
000004.SZ,医药生物,国农科技
000005.SZ,公用事业,世纪星源
000006.SZ,房地产,深振业A
000007.SZ,综合,全新好
000008.SZ,机械设备,神州高铁
000009.SZ,综合,中国宝安
000010.SZ,建筑装饰,美丽生态
000011.SZ,房地产,深物业A
000012.SZ,建筑材料,南玻A
000014.SZ,房地产,沙河股份
000016.SZ,家用电器,深康佳A
000017.SZ,汽车,深中华A
000018.SZ,建筑装饰,神州长城
000019.SZ,食品饮料,深深宝A
000020.SZ,电子,深华发A
000021.SZ,计算机,深科技
000022.SZ,交通运输,深赤湾A
000023.SZ,建筑材料,深天地A
000025.SZ,汽车,特力A
000026.SZ,轻工制造,飞亚达A
000027.SZ,公用事业,深圳能源
000028.SZ,医药生物,国药一致
000029.SZ,房地产,深深房A
000030.SZ,汽车,富奥股份
000031.SZ,房地产,中粮地产
000032.SZ,通信,深桑达A
000034.SZ,计算机,神州数码
000035.SZ,公用事业,中国天楹
000036.SZ,房地产,华联控股
000037.SZ,公用事业,深南电A
000038.SZ,传媒,深大通
000039.SZ,机械设备,中集集团
000040.SZ,公用事业,东旭蓝天
000042.SZ,房地产,中洲控股
000043.SZ,房地产,中航善达
000045.SZ,电子,深纺织A
000046.SZ,房地产,泛海控股
000048.SZ,农林牧渔,*ST康达
000049.SZ,电子,德赛电池
000050.SZ,电子,深天马A
000055.SZ,建筑装饰,方大集团
000056.SZ,房地产,皇庭国际
000058.SZ,商业贸易,深赛格
000059.SZ,化工,华锦股份
000060.SZ,有色金属,中金岭南
000061.SZ,商业贸易,农产品
000062.SZ,电子,深圳华强
000063.SZ,通信,中兴通讯
000065.SZ,建筑装饰,北方国际
000066.SZ,计算机,中国长城
000068.SZ,公用事业,华控赛格
000069.SZ,房地产,华侨城A
000070.SZ,通信,特发信息
000078.SZ,医药生物,海王生物
000088.SZ,交通运输,盐田港
000089.SZ,交通运输,深圳机场
000090.SZ,房地产,天健集团
000096.SZ,化工,广聚能源
000099.SZ,交通运输,中信海直
000100.SZ,家用电器,TCL集团
000150.SZ,医药生物,宜华健康
000151.SZ,商业贸易,中成股份
000153.SZ,医药生物,丰原药业
000155.SZ,商业贸易,川化股份
000156.SZ,传媒,华数传媒
000157.SZ,机械设备,中联重科
000158.SZ,计算机,常山北明
000159.SZ,化工,国际实业
000166.SZ,非银金融,申万宏源
000301.SZ,公用事业,东方市场
000333.SZ,家用电器,美的集团
000338.SZ,汽车,潍柴动力
000400.SZ,电气设备,许继电气
000401.SZ,建筑材料,冀东水泥
000402.SZ,房地产,金融街
000403.SZ,医药生物,ST生化
000404.SZ,家用电器,长虹华意
000407.SZ,公用事业,胜利股份
000408.SZ,化工,藏格控股
000409.SZ,综合,*ST地矿
000410.SZ,机械设备,沈阳机床
000411.SZ,医药生物,英特集团
000413.SZ,电子,东旭光电
000415.SZ,非银金融,渤海金控
000416.SZ,非银金融,民生控股
000417.SZ,商业贸易,合肥百货
000418.SZ,家用电器,小天鹅A
000419.SZ,商业贸易,通程控股
000420.SZ,化工,吉林化纤
000421.SZ,公用事业,南京公用
000422.SZ,化工,*ST宜化
000423.SZ,医药生物,东阿阿胶
000425.SZ,机械设备,徐工机械
000426.SZ,有色金属,兴业矿业
000428.SZ,休闲服务,华天酒店
000429.SZ,交通运输,粤高速A
000430.SZ,休闲服务,张家界
000488.SZ,轻工制造,晨鸣纸业
000498.SZ,建筑装饰,山东路桥
000501.SZ,商业贸易,鄂武商A
000502.SZ,房地产,绿景控股
000503.SZ,医药生物,国新健康
000504.SZ,传媒,南华生物
000505.SZ,农林牧渔,京粮控股
000506.SZ,房地产,中润资源
000507.SZ,交通运输,珠海港
000509.SZ,建筑材料,华塑控股
000510.SZ,化工,金路集团
000513.SZ,医药生物,丽珠集团
000514.SZ,房地产,渝开发
000516.SZ,商业贸易,国际医学
000517.SZ,房地产,荣安地产
000518.SZ,医药生物,四环生物
000519.SZ,国防军工,中兵红箭
000520.SZ,交通运输,长航凤凰
000521.SZ,家用电器,长虹美菱
000523.SZ,化工,广州浪奇
000524.SZ,休闲服务,岭南控股
000525.SZ,化工,红太阳
000526.SZ,传媒,紫光学大
000528.SZ,机械设备,柳工
000529.SZ,综合,广弘控股
000530.SZ,机械设备,大冷股份
000531.SZ,公用事业,穗恒运A
000532.SZ,电子,华金资本
000533.SZ,家用电器,万家乐
000534.SZ,房地产,万泽股份
000536.SZ,电子,华映科技
000537.SZ,房地产,广宇发展
000538.SZ,医药生物,云南白药
000539.SZ,公用事业,粤电力A
000540.SZ,房地产,中天金融
000541.SZ,电子,佛山照明
000543.SZ,公用事业,皖能电力
000544.SZ,公用事业,中原环保
000545.SZ,化工,金浦钛业
000546.SZ,建筑材料,金圆股份
000547.SZ,国防军工,航天发展
000548.SZ,交通运输,湖南投资
000550.SZ,汽车,江铃汽车
000551.SZ,机械设备,创元科技
000552.SZ,采掘,靖远煤电
000553.SZ,化工,沙隆达A
000554.SZ,化工,泰山石油
000555.SZ,计算机,神州信息
000557.SZ,交通运输,西部创业
000558.SZ,房地产,莱茵体育
000559.SZ,汽车,万向钱潮
000560.SZ,商业贸易,我爱我家
000561.SZ,通信,烽火电子
000563.SZ,非银金融,陕国投A
000564.SZ,商业贸易,供销大集
000565.SZ,化工,渝三峡A
000566.SZ,医药生物,海南海药
000567.SZ,非银金融,海德股份
000568.SZ,食品饮料,泸州老窖
000570.SZ,机械设备,苏常柴A
000571.SZ,采掘,新大洲A
000572.SZ,汽车,海马汽车
000573.SZ,房地产,粤宏远A
000576.SZ,农林牧渔,广东甘化
000581.SZ,汽车,威孚高科
000582.SZ,交通运输,北部湾港
000584.SZ,机械设备,哈工智能
000585.SZ,电气设备,*ST东电
000586.SZ,通信,汇源通信
000587.SZ,轻工制造,金洲慈航
000589.SZ,化工,黔轮胎A
000590.SZ,医药生物,启迪古汉
000591.SZ,电气设备,太阳能
000592.SZ,农林牧渔,平潭发展
000593.SZ,公用事业,大通燃气
000595.SZ,机械设备,宝塔实业
000596.SZ,食品饮料,古井贡酒
000597.SZ,医药生物,东北制药
000598.SZ,公用事业,兴蓉环境
000599.SZ,化工,青岛双星
000600.SZ,公用事业,建投能源
000601.SZ,公用事业,韶能股份
000603.SZ,有色金属,盛达矿业
000605.SZ,公用事业,渤海股份
000606.SZ,计算机,顺利办
000607.SZ,传媒,华媒控股
000608.SZ,房地产,阳光股份
000609.SZ,房地产,中迪投资
000610.SZ,休闲服务,西安旅游
000611.SZ,纺织服装,天首发展
000612.SZ,有色金属,焦作万方
000613.SZ,休闲服务,大东海A
000615.SZ,房地产,京汉股份
000616.SZ,房地产,海航投资
000617.SZ,非银金融,中油资本
000619.SZ,建筑材料,海螺型材
000620.SZ,房地产,新华联
000622.SZ,汽车,恒立实业
000623.SZ,医药生物,吉林敖东
000625.SZ,汽车,长安汽车
000626.SZ,商业贸易,远大控股
000627.SZ,非银金融,天茂集团
000628.SZ,建筑装饰,高新发展
000629.SZ,采掘,*ST钒钛
000630.SZ,有色金属,铜陵有色
000631.SZ,房地产,顺发恒业
000632.SZ,综合,三木集团
000633.SZ,有色金属,合金投资
000635.SZ,化工,英力特
000636.SZ,电子,风华高科
000637.SZ,化工,茂化实华
000638.SZ,综合,万方发展
000639.SZ,农林牧渔,西王食品
000650.SZ,医药生物,仁和药业
000651.SZ,家用电器,格力电器
000652.SZ,综合,泰达股份
000655.SZ,采掘,*ST金岭
000656.SZ,房地产,金科股份
000657.SZ,有色金属,中钨高新
000659.SZ,轻工制造,珠海中富
000661.SZ,医药生物,长春高新
000662.SZ,计算机,天夏智慧
000663.SZ,轻工制造,永安林业
000665.SZ,传媒,湖北广电
000666.SZ,非银金融,经纬纺机
000667.SZ,房地产,美好置业
000668.SZ,房地产,荣丰控股
000669.SZ,公用事业,金鸿控股
000670.SZ,电子,盈方微
000671.SZ,房地产,阳光城
000672.SZ,建筑材料,上峰水泥
000673.SZ,传媒,当代东方
000676.SZ,传媒,智度股份
000677.SZ,化工,恒天海龙
000678.SZ,汽车,襄阳轴承
000679.SZ,商业贸易,大连友谊
000680.SZ,机械设备,山推股份
000681.SZ,传媒,视觉中国
000682.SZ,电气设备,东方电子
000683.SZ,化工,远兴能源
000685.SZ,公用事业,中山公用
000686.SZ,非银金融,东北证券
000687.SZ,通信,华讯方舟
000688.SZ,有色金属,国城矿业
000690.SZ,公用事业,宝新能源
000691.SZ,房地产,亚太实业
000692.SZ,公用事业,惠天热电
000693.SZ,有色金属,*ST华泽
000695.SZ,公用事业,滨海能源
000697.SZ,有色金属,炼石有色
000698.SZ,化工,沈阳化工
000700.SZ,汽车,模塑科技
000701.SZ,电子,厦门信达
000702.SZ,农林牧渔,正虹科技
000703.SZ,化工,恒逸石化
000705.SZ,医药生物,浙江震元
000707.SZ,化工,*ST双环
000708.SZ,钢铁,大冶特钢
000709.SZ,钢铁,河钢股份
000710.SZ,医药生物,贝瑞基因
000711.SZ,公用事业,京蓝科技
000712.SZ,非银金融,锦龙股份
000713.SZ,农林牧渔,丰乐种业
000715.SZ,商业贸易,中兴商业
000716.SZ,食品饮料,黑芝麻
000717.SZ,钢铁,韶钢松山
000718.SZ,房地产,苏宁环球
000719.SZ,传媒,中原传媒
000720.SZ,公用事业,*ST新能
000721.SZ,休闲服务,西安饮食
000722.SZ,公用事业,湖南发展
000723.SZ,采掘,美锦能源
000725.SZ,电子,京东方A
000726.SZ,纺织服装,鲁泰A
000727.SZ,电子,华东科技
000728.SZ,非银金融,国元证券
000729.SZ,食品饮料,燕京啤酒
000731.SZ,化工,四川美丰
000732.SZ,房地产,泰禾集团
000733.SZ,电子,振华科技
000735.SZ,农林牧渔,罗牛山
000736.SZ,房地产,中交地产
000737.SZ,化工,*ST南风
000738.SZ,国防军工,航发控制
000739.SZ,医药生物,普洛药业
000750.SZ,非银金融,国海证券
000751.SZ,有色金属,锌业股份
000752.SZ,食品饮料,西藏发展
000753.SZ,汽车,漳州发展
000755.SZ,化工,*ST三维
000756.SZ,医药生物,新华制药
000757.SZ,汽车,浩物股份
000758.SZ,有色金属,中色股份
000759.SZ,商业贸易,中百集团
000760.SZ,汽车,斯太尔
000761.SZ,钢铁,本钢板材
000762.SZ,采掘,西藏矿业
000766.SZ,医药生物,通化金马
000767.SZ,公用事业,漳泽电力
000768.SZ,国防军工,中航飞机
000776.SZ,非银金融,广发证券
000777.SZ,机械设备,中核科技
000778.SZ,钢铁,新兴铸管
000779.SZ,纺织服装,三毛派神
000780.SZ,采掘,平庄能源
000782.SZ,化工,美达股份
000783.SZ,非银金融,长江证券
000785.SZ,商业贸易,武汉中商
000786.SZ,建筑材料,北新建材
000788.SZ,医药生物,北大医药
000789.SZ,建筑材料,万年青
000790.SZ,医药生物,泰合健康
000791.SZ,公用事业,甘肃电投
000792.SZ,化工,盐湖股份
000793.SZ,传媒,华闻传媒
000795.SZ,有色金属,英洛华
000796.SZ,休闲服务,凯撒旅游
000797.SZ,房地产,中国武夷
000798.SZ,农林牧渔,中水渔业
000799.SZ,食品饮料,酒鬼酒
000800.SZ,汽车,一汽轿车
000801.SZ,家用电器,四川九洲
000802.SZ,传媒,北京文化
000803.SZ,房地产,*ST金宇
000806.SZ,电气设备,银河生物
000807.SZ,有色金属,云铝股份
000809.SZ,房地产,铁岭新城
000810.SZ,家用电器,创维数字
000811.SZ,机械设备,冰轮环境
000812.SZ,轻工制造,陕西金叶
000813.SZ,有色金属,德展健康
000815.SZ,轻工制造,美利云
000816.SZ,机械设备,*ST慧业
000818.SZ,化工,航锦科技
000819.SZ,化工,岳阳兴长
000820.SZ,公用事业,神雾节能
000821.SZ,机械设备,京山轻机
000822.SZ,化工,山东海化
000823.SZ,电子,超声电子
000825.SZ,钢铁,太钢不锈
000826.SZ,公用事业,启迪桑德
000828.SZ,交通运输,东莞控股
000829.SZ,商业贸易,天音控股
000830.SZ,化工,鲁西化工
000831.SZ,有色金属,五矿稀土
000833.SZ,综合,粤桂股份
000835.SZ,传媒,长城动漫
000836.SZ,通信,鑫茂科技
000837.SZ,机械设备,秦川机床
000838.SZ,房地产,财信发展
000839.SZ,综合,中信国安
000848.SZ,食品饮料,承德露露
000850.SZ,纺织服装,华茂股份
000851.SZ,通信,高鸿股份
000852.SZ,机械设备,石化机械
000856.SZ,机械设备,冀东装备
000858.SZ,食品饮料,五粮液
000859.SZ,化工,国风塑业
000860.SZ,食品饮料,顺鑫农业
000861.SZ,商业贸易,海印股份
000862.SZ,公用事业,银星能源
000863.SZ,休闲服务,三湘印象
000868.SZ,汽车,安凯客车
000869.SZ,食品饮料,张裕A
000875.SZ,公用事业,吉电股份
000876.SZ,农林牧渔,新希望
000877.SZ,建筑材料,天山股份
000878.SZ,有色金属,云南铜业
000880.SZ,机械设备,潍柴重机
000881.SZ,综合,中广核技
000882.SZ,商业贸易,华联股份
000883.SZ,公用事业,湖北能源
000885.SZ,建筑材料,同力水泥
000886.SZ,交通运输,海南高速
000887.SZ,汽车,中鼎股份
000888.SZ,休闲服务,峨眉山A
000889.SZ,通信,茂业通信
000890.SZ,机械设备,法尔胜
000892.SZ,传媒,欢瑞世纪
000893.SZ,农林牧渔,*ST东凌
000895.SZ,食品饮料,双汇发展
000897.SZ,房地产,津滨发展
000898.SZ,钢铁,鞍钢股份
000899.SZ,公用事业,赣能股份
000900.SZ,交通运输,现代投资
000901.SZ,机械设备,航天科技
000902.SZ,化工,新洋丰
000903.SZ,汽车,云内动力
000905.SZ,交通运输,厦门港务
000906.SZ,商业贸易,浙商中拓
000908.SZ,医药生物,景峰医药
000909.SZ,房地产,数源科技
000910.SZ,轻工制造,大亚圣象
000911.SZ,农林牧渔,南宁糖业
000912.SZ,化工,*ST天化
000913.SZ,汽车,钱江摩托
000915.SZ,医药生物,山大华特
000917.SZ,传媒,电广传媒
000918.SZ,房地产,嘉凯城
000919.SZ,医药生物,金陵药业
000920.SZ,公用事业,南方汇通
000921.SZ,家用电器,海信科龙
000922.SZ,电气设备,*ST佳电
000923.SZ,机械设备,河北宣工
000925.SZ,机械设备,众合科技
000926.SZ,房地产,福星股份
000927.SZ,汽车,一汽夏利
000928.SZ,建筑装饰,中钢国际
000929.SZ,食品饮料,兰州黄河
000930.SZ,农林牧渔,中粮生化
000931.SZ,综合,中关村
000932.SZ,钢铁,华菱钢铁
000933.SZ,有色金属,神火股份
000935.SZ,建筑材料,四川双马
000936.SZ,化工,华西股份
000937.SZ,采掘,冀中能源
000938.SZ,计算机,紫光股份
000939.SZ,公用事业,*ST凯迪
000948.SZ,计算机,南天信息
000949.SZ,化工,新乡化纤
000950.SZ,化工,*ST建峰
000951.SZ,汽车,中国重汽
000952.SZ,医药生物,广济药业
000953.SZ,化工,ST河化
000955.SZ,纺织服装,欣龙控股
000957.SZ,汽车,中通客车
000958.SZ,公用事业,东方能源
000959.SZ,钢铁,首钢股份
000960.SZ,有色金属,锡业股份
000961.SZ,房地产,中南建设
000962.SZ,有色金属,东方钽业
000963.SZ,医药生物,华东医药
000965.SZ,房地产,天保基建
000966.SZ,公用事业,长源电力
000967.SZ,公用事业,盈峰环境
000968.SZ,采掘,蓝焰控股
000969.SZ,有色金属,安泰科技
000970.SZ,有色金属,中科三环
000971.SZ,通信,高升控股
000972.SZ,农林牧渔,*ST中基
000973.SZ,化工,佛塑科技
000975.SZ,有色金属,银泰资源
000976.SZ,机械设备,华铁股份
000977.SZ,计算机,浪潮信息
000978.SZ,休闲服务,桂林旅游
000979.SZ,房地产,中弘股份
000980.SZ,汽车,众泰汽车
000981.SZ,房地产,银亿股份
000982.SZ,纺织服装,*ST中绒
000983.SZ,采掘,西山煤电
000985.SZ,化工,大庆华科
000987.SZ,非银金融,越秀金控
000988.SZ,电子,华工科技
000989.SZ,医药生物,九芝堂
000990.SZ,化工,诚志股份
000993.SZ,综合,闽东电力
000995.SZ,食品饮料,*ST皇台
000996.SZ,汽车,中国中期
000997.SZ,计算机,新大陆
000998.SZ,农林牧渔,隆平高科
000999.SZ,医药生物,华润三九
001696.SZ,汽车,宗申动力
001896.SZ,公用事业,豫能控股
001965.SZ,交通运输,招商公路
001979.SZ,房地产,招商蛇口
002001.SZ,医药生物,新和成
002002.SZ,化工,鸿达兴业
002003.SZ,纺织服装,伟星股份
002004.SZ,化工,华邦健康
002005.SZ,电子,德豪润达
002006.SZ,机械设备,精功科技
002007.SZ,医药生物,华兰生物
002008.SZ,电子,大族激光
002009.SZ,机械设备,天奇股份
002010.SZ,交通运输,传化智联
002011.SZ,家用电器,盾安环境
002012.SZ,轻工制造,凯恩股份
002013.SZ,国防军工,中航机电
002014.SZ,轻工制造,永新股份
002015.SZ,化工,霞客环保
002016.SZ,房地产,世荣兆业
002017.SZ,通信,东信和平
002018.SZ,综合,*ST华信
002019.SZ,医药生物,亿帆医药
002020.SZ,医药生物,京新药业
002021.SZ,机械设备,中捷资源
002022.SZ,医药生物,科华生物
002023.SZ,国防军工,海特高新
002024.SZ,商业贸易,苏宁易购
002025.SZ,电子,航天电器
002026.SZ,机械设备,山东威达
002027.SZ,传媒,分众传媒
002028.SZ,电气设备,思源电气
002029.SZ,纺织服装,七匹狼
002030.SZ,医药生物,达安基因
002031.SZ,机械设备,巨轮智能
002032.SZ,家用电器,苏泊尔
002033.SZ,休闲服务,丽江旅游
002034.SZ,纺织服装,旺能环境
002035.SZ,家用电器,华帝股份
002036.SZ,电子,联创电子
002037.SZ,化工,久联发展
002038.SZ,医药生物,双鹭药业
002039.SZ,公用事业,黔源电力
002040.SZ,交通运输,南京港
002041.SZ,农林牧渔,登海种业
002042.SZ,纺织服装,华孚时尚
002043.SZ,建筑材料,兔宝宝
002044.SZ,医药生物,美年健康
002045.SZ,电子,国光电器
002046.SZ,机械设备,轴研科技
002047.SZ,建筑装饰,宝鹰股份
002048.SZ,汽车,宁波华翔
002049.SZ,电子,紫光国微
002050.SZ,家用电器,三花智控
002051.SZ,建筑装饰,中工国际
002052.SZ,家用电器,同洲电子
002053.SZ,化工,云南能投
002054.SZ,化工,德美化工
002055.SZ,电子,得润电子
002056.SZ,电子,横店东磁
002057.SZ,有色金属,中钢天源
002058.SZ,电气设备,威尔泰
002059.SZ,休闲服务,云南旅游
002060.SZ,建筑装饰,粤水电
002061.SZ,建筑装饰,浙江交科
002062.SZ,建筑装饰,宏润建设
002063.SZ,计算机,远光软件
002064.SZ,化工,华峰氨纶
002065.SZ,计算机,东华软件
002066.SZ,建筑材料,瑞泰科技
002067.SZ,轻工制造,景兴纸业
002068.SZ,化工,黑猫股份
002069.SZ,农林牧渔,獐子岛
002070.SZ,有色金属,*ST众和
002071.SZ,传媒,长城影视
002072.SZ,计算机,凯瑞德
002073.SZ,机械设备,软控股份
002074.SZ,电气设备,国轩高科
002075.SZ,钢铁,沙钢股份
002076.SZ,电子,雪莱特
002077.SZ,电子,大港股份
002078.SZ,轻工制造,太阳纸业
002079.SZ,电子,苏州固锝
002080.SZ,化工,中材科技
002081.SZ,建筑装饰,金螳螂
002082.SZ,建筑材料,万邦德
002083.SZ,纺织服装,孚日股份
002084.SZ,轻工制造,海鸥住工
002085.SZ,汽车,万丰奥威
002086.SZ,农林牧渔,东方海洋
002087.SZ,纺织服装,新野纺织
002088.SZ,建筑材料,鲁阳节能
002089.SZ,通信,新海宜
002090.SZ,电气设备,金智科技
002091.SZ,商业贸易,江苏国泰
002092.SZ,化工,中泰化学
002093.SZ,通信,国脉科技
002094.SZ,化工,青岛金王
002095.SZ,传媒,生意宝
002096.SZ,化工,南岭民爆
002097.SZ,机械设备,山河智能
002098.SZ,纺织服装,浔兴股份
002099.SZ,医药生物,海翔药业
002100.SZ,农林牧渔,天康生物
002101.SZ,汽车,广东鸿图
002102.SZ,医药生物,冠福股份
002103.SZ,传媒,广博股份
002104.SZ,通信,恒宝股份
002105.SZ,汽车,信隆健康
002106.SZ,电子,莱宝高科
002107.SZ,医药生物,沃华医药
002108.SZ,化工,沧州明珠
002109.SZ,化工,兴化股份
002110.SZ,钢铁,三钢闽光
002111.SZ,机械设备,威海广泰
002112.SZ,电气设备,三变科技
002113.SZ,传媒,天润数娱
002114.SZ,有色金属,罗平锌电
002115.SZ,通信,三维通信
002116.SZ,建筑装饰,中国海诚
002117.SZ,轻工制造,东港股份
002118.SZ,医药生物,紫鑫药业
002119.SZ,电子,康强电子
002120.SZ,交通运输,韵达股份
002121.SZ,电气设备,科陆电子
002122.SZ,机械设备,*ST天马
002123.SZ,传媒,梦网集团
002124.SZ,农林牧渔,天邦股份
002125.SZ,化工,湘潭电化
002126.SZ,汽车,银轮股份
002127.SZ,商业贸易,南极电商
002128.SZ,采掘,露天煤业
002129.SZ,电气设备,中环股份
002130.SZ,有色金属,沃尔核材
002131.SZ,传媒,利欧股份
002132.SZ,机械设备,恒星科技
002133.SZ,房地产,广宇集团
002134.SZ,电子,天津普林
002135.SZ,建筑装饰,东南网架
002136.SZ,化工,安纳达
002137.SZ,传媒,麦达数字
002138.SZ,电子,顺络电子
002139.SZ,电子,拓邦股份
002140.SZ,建筑装饰,东华科技
002141.SZ,电子,贤丰控股
002142.SZ,银行,宁波银行
002143.SZ,传媒,印纪传媒
002144.SZ,纺织服装,宏达高科
002145.SZ,化工,中核钛白
002146.SZ,房地产,荣盛发展
002147.SZ,房地产,新光圆成
002148.SZ,传媒,北纬科技
002149.SZ,有色金属,西部材料
002150.SZ,机械设备,通润装备
002151.SZ,国防军工,北斗星通
002152.SZ,计算机,广电运通
002153.SZ,计算机,石基信息
002154.SZ,纺织服装,报喜鸟
002155.SZ,有色金属,湖南黄金
002156.SZ,电子,通富微电
002157.SZ,农林牧渔,正邦科技
002158.SZ,机械设备,汉钟精机
002159.SZ,休闲服务,三特索道
002160.SZ,有色金属,常铝股份
002161.SZ,电子,远望谷
002162.SZ,建筑材料,悦心健康
002163.SZ,建筑材料,中航三鑫
002164.SZ,机械设备,宁波东力
002165.SZ,化工,红宝丽
002166.SZ,医药生物,莱茵生物
002167.SZ,有色金属,东方锆业
002168.SZ,电气设备,深圳惠程
002169.SZ,电气设备,智光电气
002170.SZ,化工,芭田股份
002171.SZ,有色金属,楚江新材
002172.SZ,化工,澳洋科技
002173.SZ,医药生物,创新医疗
002174.SZ,传媒,游族网络
002175.SZ,传媒,东方网络
002176.SZ,电气设备,江特电机
002177.SZ,计算机,御银股份
002178.SZ,建筑装饰,延华智能
002179.SZ,电子,中航光电
002180.SZ,电子,纳思达
002181.SZ,传媒,粤传媒
002182.SZ,有色金属,云海金属
002183.SZ,交通运输,怡亚通
002184.SZ,电气设备,海得控制
002185.SZ,电子,华天科技
002186.SZ,休闲服务,全聚德
002187.SZ,商业贸易,广百股份
002188.SZ,传媒,*ST巴士
002189.SZ,电子,利达光电
002190.SZ,国防军工,成飞集成
002191.SZ,轻工制造,劲嘉股份
002192.SZ,机械设备,融捷股份
002193.SZ,纺织服装,如意集团
002194.SZ,通信,*ST凡谷
002195.SZ,计算机,二三四五
002196.SZ,电气设备,方正电机
002197.SZ,计算机,证通电子
002198.SZ,医药生物,嘉应制药
002199.SZ,电子,东晶电子
002200.SZ,建筑装饰,云投生态
002201.SZ,化工,九鼎新材
002202.SZ,电气设备,金风科技
002203.SZ,有色金属,海亮股份
002204.SZ,机械设备,大连重工
002205.SZ,建筑材料,国统股份
002206.SZ,化工,海利得
002207.SZ,采掘,*ST准油
002208.SZ,房地产,合肥城建
002209.SZ,机械设备,达意隆
002210.SZ,交通运输,飞马国际
002211.SZ,化工,宏达新材
002212.SZ,电气设备,南洋股份
002213.SZ,汽车,特尔佳
002214.SZ,电子,大立科技
002215.SZ,化工,诺普信
002216.SZ,食品饮料,三全食品
002217.SZ,电子,合力泰
002218.SZ,电气设备,拓日新能
002219.SZ,医药生物,恒康医疗
002220.SZ,农林牧渔,天宝食品
002221.SZ,化工,东华能源
002222.SZ,电子,福晶科技
002223.SZ,医药生物,鱼跃医疗
002224.SZ,化工,三力士
002225.SZ,建筑材料,濮耐股份
002226.SZ,化工,江南化工
002227.SZ,电气设备,奥特迅
002228.SZ,轻工制造,合兴包装
002229.SZ,轻工制造,鸿博股份
002230.SZ,计算机,科大讯飞
002231.SZ,通信,奥维通信
002232.SZ,计算机,启明信息
002233.SZ,建筑材料,塔牌集团
002234.SZ,农林牧渔,民和股份
002235.SZ,轻工制造,安妮股份
002236.SZ,电子,大华股份
002237.SZ,有色金属,恒邦股份
002238.SZ,传媒,天威视讯
002239.SZ,汽车,奥特佳
002240.SZ,轻工制造,威华股份
002241.SZ,电子,歌尔股份
002242.SZ,家用电器,九阳股份
002243.SZ,轻工制造,通产丽星
002244.SZ,房地产,滨江集团
002245.SZ,交通运输,澳洋顺昌
002246.SZ,化工,北化股份
002247.SZ,传媒,帝龙文化
002248.SZ,机械设备,华东数控
002249.SZ,电气设备,大洋电机
002250.SZ,化工,联化科技
002251.SZ,商业贸易,步步高
002252.SZ,医药生物,上海莱士
002253.SZ,计算机,川大智胜
002254.SZ,化工,泰和新材
002255.SZ,电气设备,海陆重工
002256.SZ,化工,兆新股份
002258.SZ,化工,利尔化学
002259.SZ,公用事业,升达林业
002260.SZ,家用电器,*ST德奥
002261.SZ,传媒,拓维信息
002262.SZ,医药生物,恩华药业
002263.SZ,化工,*ST东南
002264.SZ,商业贸易,新华都
002265.SZ,汽车,西仪股份
002266.SZ,电气设备,浙富控股
002267.SZ,公用事业,陕天然气
002268.SZ,计算机,卫士通
002269.SZ,纺织服装,美邦服饰
002270.SZ,电气设备,华明装备
002271.SZ,建筑材料,东方雨虹
002272.SZ,机械设备,川润股份
002273.SZ,电子,水晶光电
002274.SZ,化工,华昌化工
002275.SZ,医药生物,桂林三金
002276.SZ,电气设备,万马股份
002277.SZ,商业贸易,友阿股份
002278.SZ,机械设备,神开股份
002279.SZ,计算机,久其软件
002280.SZ,计算机,联络互动
002281.SZ,通信,光迅科技
002282.SZ,机械设备,博深工具
002283.SZ,汽车,天润曲轴
002284.SZ,汽车,亚太股份
002285.SZ,房地产,世联行
002286.SZ,农林牧渔,保龄宝
002287.SZ,医药生物,奇正藏药
002288.SZ,电子,超华科技
002289.SZ,电子,宇顺电子
002290.SZ,家用电器,中科新材
002291.SZ,纺织服装,星期六
002292.SZ,传媒,奥飞娱乐
002293.SZ,纺织服装,罗莱生活
002294.SZ,医药生物,信立泰
002295.SZ,有色金属,精艺股份
002296.SZ,计算机,辉煌科技
002297.SZ,国防军工,博云新材
002298.SZ,电气设备,中电兴发
002299.SZ,农林牧渔,圣农发展
002300.SZ,电气设备,太阳电缆
002301.SZ,轻工制造,齐心集团
002302.SZ,建筑材料,西部建设
002303.SZ,轻工制造,美盈森
002304.SZ,食品饮料,洋河股份
002305.SZ,房地产,南国置业
002306.SZ,休闲服务,*ST云网
002307.SZ,建筑装饰,北新路桥
002308.SZ,计算机,威创股份
002309.SZ,电气设备,中利集团
002310.SZ,建筑装饰,东方园林
002311.SZ,农林牧渔,海大集团
002312.SZ,计算机,三泰控股
002313.SZ,通信,日海智能
002314.SZ,房地产,南山控股
002315.SZ,传媒,焦点科技
002316.SZ,通信,亚联发展
002317.SZ,医药生物,众生药业
002318.SZ,钢铁,久立特材
002319.SZ,化工,乐通股份
002320.SZ,交通运输,海峡股份
002321.SZ,农林牧渔,华英农业
002322.SZ,电气设备,理工环科
002323.SZ,建筑材料,*ST百特
002324.SZ,化工,普利特
002325.SZ,建筑装饰,洪涛股份
002326.SZ,化工,永太科技
002327.SZ,纺织服装,富安娜
002328.SZ,汽车,新朋股份
002329.SZ,食品饮料,皇氏集团
002330.SZ,食品饮料,得利斯
002331.SZ,计算机,皖通科技
002332.SZ,医药生物,仙琚制药
002333.SZ,建筑材料,罗普斯金
002334.SZ,电气设备,英威腾
002335.SZ,电气设备,科华恒盛
002336.SZ,商业贸易,人人乐
002337.SZ,机械设备,赛象科技
002338.SZ,机械设备,奥普光电
002339.SZ,电气设备,积成电子
002340.SZ,有色金属,格林美
002341.SZ,公用事业,新纶科技
002342.SZ,机械设备,巨力索具
002343.SZ,传媒,慈文传媒
002344.SZ,商业贸易,海宁皮城
002345.SZ,轻工制造,潮宏基
002346.SZ,建筑材料,柘中股份
002347.SZ,机械设备,泰尔股份
002348.SZ,轻工制造,高乐股份
002349.SZ,医药生物,精华制药
002350.SZ,电气设备,北京科锐
002351.SZ,电子,漫步者
002352.SZ,交通运输,顺丰控股
002353.SZ,机械设备,杰瑞股份
002354.SZ,传媒,天神娱乐
002355.SZ,汽车,兴民智通
002356.SZ,轻工制造,赫美集团
002357.SZ,交通运输,富临运业
002358.SZ,电气设备,森源电气
002359.SZ,通信,北讯集团
002360.SZ,化工,同德化工
002361.SZ,化工,神剑股份
002362.SZ,计算机,汉王科技
002363.SZ,汽车,隆基机械
002364.SZ,电气设备,中恒电气
002365.SZ,医药生物,永安药业
002366.SZ,机械设备,台海核电
002367.SZ,机械设备,康力电梯
002368.SZ,计算机,太极股份
002369.SZ,电子,卓翼科技
002370.SZ,医药生物,亚太药业
002371.SZ,电子,北方华创
002372.SZ,建筑材料,伟星新材
002373.SZ,计算机,千方科技
002374.SZ,建筑装饰,丽鹏股份
002375.SZ,建筑装饰,亚厦股份
002376.SZ,计算机,新北洋
002377.SZ,休闲服务,国创高新
002378.SZ,有色金属,章源钨业
002379.SZ,有色金属,宏创控股
002380.SZ,计算机,科远股份
002381.SZ,化工,双箭股份
002382.SZ,化工,蓝帆医疗
002383.SZ,计算机,合众思壮
002384.SZ,电子,东山精密
002385.SZ,农林牧渔,大北农
002386.SZ,化工,天原集团
002387.SZ,计算机,维信诺
002388.SZ,电子,新亚制程
002389.SZ,电子,南洋科技
002390.SZ,医药生物,信邦制药
002391.SZ,化工,长青股份
002392.SZ,建筑材料,北京利尔
002393.SZ,医药生物,力生制药
002394.SZ,纺织服装,联发股份
002395.SZ,化工,双象股份
002396.SZ,通信,星网锐捷
002397.SZ,纺织服装,梦洁股份
002398.SZ,建筑材料,建研集团
002399.SZ,医药生物,海普瑞
002400.SZ,传媒,省广集团
002401.SZ,计算机,中远海科
002402.SZ,电子,和而泰
002403.SZ,家用电器,爱仕达
002404.SZ,纺织服装,嘉欣丝绸
002405.SZ,计算机,四维图新
002406.SZ,汽车,远东传动
002407.SZ,化工,多氟多
002408.SZ,化工,齐翔腾达
002409.SZ,化工,雅克科技
002410.SZ,计算机,广联达
002411.SZ,医药生物,必康股份
002412.SZ,医药生物,汉森制药
002413.SZ,国防军工,雷科防务
002414.SZ,电子,高德红外
002415.SZ,电子,海康威视
002416.SZ,商业贸易,爱施德
002417.SZ,通信,深南股份
002418.SZ,家用电器,康盛股份
002419.SZ,商业贸易,天虹股份
002420.SZ,家用电器,毅昌股份
002421.SZ,计算机,达实智能
002422.SZ,医药生物,科伦药业
002423.SZ,机械设备,中原特钢
002424.SZ,医药生物,贵州百灵
002425.SZ,传媒,凯撒文化
002426.SZ,机械设备,胜利精密
002427.SZ,化工,*ST尤夫
002428.SZ,有色金属,云南锗业
002429.SZ,家用电器,兆驰股份
002430.SZ,机械设备,杭氧股份
002431.SZ,建筑装饰,棕榈股份
002432.SZ,医药生物,九安医疗
002433.SZ,医药生物,太安堂
002434.SZ,汽车,万里扬
002435.SZ,医药生物,长江润发
002436.SZ,电子,兴森科技
002437.SZ,医药生物,誉衡药业
002438.SZ,机械设备,江苏神通
002439.SZ,计算机,启明星辰
002440.SZ,化工,闰土股份
002441.SZ,电气设备,众业达
002442.SZ,化工,龙星化工
002443.SZ,钢铁,金洲管道
002444.SZ,机械设备,巨星科技
002445.SZ,传媒,中南文化
002446.SZ,通信,盛路通信
002447.SZ,传媒,晨鑫科技
002448.SZ,汽车,中原内配
002449.SZ,电子,国星光电
002450.SZ,化工,康得新
002451.SZ,电气设备,摩恩电气
002452.SZ,电气设备,长高集团
002453.SZ,化工,华软科技
002454.SZ,汽车,松芝股份
002455.SZ,化工,百川股份
002456.SZ,电子,欧菲科技
002457.SZ,建筑材料,青龙管业
002458.SZ,农林牧渔,益生股份
002459.SZ,机械设备,天业通联
002460.SZ,有色金属,赣锋锂业
002461.SZ,食品饮料,珠江啤酒
002462.SZ,医药生物,嘉事堂
002463.SZ,电子,沪电股份
002464.SZ,传媒,众应互联
002465.SZ,通信,海格通信
002466.SZ,有色金属,天齐锂业
002467.SZ,通信,二六三
002468.SZ,交通运输,申通快递
002469.SZ,建筑装饰,三维工程
002470.SZ,化工,金正大
002471.SZ,电气设备,中超控股
002472.SZ,汽车,双环传动
002473.SZ,家用电器,*ST圣莱
002474.SZ,计算机,榕基软件
002475.SZ,电子,立讯精密
002476.SZ,化工,宝莫股份
002477.SZ,农林牧渔,雏鹰农牧
002478.SZ,钢铁,常宝股份
002479.SZ,公用事业,富春环保
002480.SZ,机械设备,新筑股份
002481.SZ,食品饮料,双塔食品
002482.SZ,建筑装饰,广田集团
002483.SZ,机械设备,润邦股份
002484.SZ,电子,江海股份
002485.SZ,纺织服装,希努尔
002486.SZ,纺织服装,嘉麟杰
002487.SZ,机械设备,大金重工
002488.SZ,汽车,金固股份
002489.SZ,轻工制造,浙江永强
002490.SZ,机械设备,山东墨龙
002491.SZ,通信,通鼎互联
002492.SZ,交通运输,恒基达鑫
002493.SZ,化工,荣盛石化
002494.SZ,纺织服装,华斯股份
002495.SZ,食品饮料,佳隆股份
002496.SZ,化工,ST辉丰
002497.SZ,化工,雅化集团
002498.SZ,电气设备,汉缆股份
002499.SZ,机械设备,科林环保
002500.SZ,非银金融,山西证券
002501.SZ,有色金属,利源精制
002502.SZ,传媒,骅威文化
002503.SZ,纺织服装,搜于特
002504.SZ,建筑装饰,弘高创意
002505.SZ,农林牧渔,大康农业
002506.SZ,电气设备,协鑫集成
002507.SZ,食品饮料,涪陵榨菜
002508.SZ,家用电器,老板电器
002509.SZ,机械设备,天广中茂
002510.SZ,汽车,天汽模
002511.SZ,轻工制造,中顺洁柔
002512.SZ,计算机,达华智能
002513.SZ,化工,蓝丰生化
002514.SZ,机械设备,宝馨科技
002515.SZ,食品饮料,金字火腿
002516.SZ,纺织服装,旷达科技
002517.SZ,传媒,恺英网络
002518.SZ,电气设备,科士达
002519.SZ,家用电器,银河电子
002520.SZ,机械设备,日发精机
002521.SZ,轻工制造,齐峰新材
002522.SZ,轻工制造,浙江众成
002523.SZ,机械设备,天桥起重
002524.SZ,公用事业,光正集团
002526.SZ,机械设备,山东矿机
002527.SZ,电气设备,新时达
002528.SZ,计算机,英飞拓
002529.SZ,机械设备,海源机械
002530.SZ,计算机,金财互联
002531.SZ,电气设备,天顺风能
002532.SZ,机械设备,新界泵业
002533.SZ,电气设备,金杯电工
002534.SZ,电气设备,杭锅股份
002535.SZ,机械设备,林州重机
002536.SZ,汽车,西泵股份
002537.SZ,机械设备,海联金汇
002538.SZ,化工,司尔特
002539.SZ,化工,云图控股
002540.SZ,有色金属,亚太科技
002541.SZ,建筑装饰,鸿路钢构
002542.SZ,建筑装饰,中化岩土
002543.SZ,家用电器,万和电气
002544.SZ,通信,杰赛科技
002545.SZ,建筑装饰,东方铁塔
002546.SZ,电气设备,新联电子
002547.SZ,电子,春兴精工
002548.SZ,农林牧渔,金新农
002549.SZ,化工,凯美特气
002550.SZ,医药生物,千红制药
002551.SZ,医药生物,尚荣医疗
002552.SZ,机械设备,*ST宝鼎
002553.SZ,汽车,南方轴承
002554.SZ,采掘,惠博普
002555.SZ,传媒,三七互娱
002556.SZ,化工,辉隆股份
002557.SZ,食品饮料,洽洽食品
002558.SZ,传媒,巨人网络
002559.SZ,机械设备,亚威股份
002560.SZ,电气设备,通达股份
002561.SZ,商业贸易,徐家汇
002562.SZ,化工,兄弟科技
002563.SZ,纺织服装,森马服饰
002564.SZ,机械设备,天沃科技
002565.SZ,轻工制造,顺灏股份
002566.SZ,医药生物,益盛药业
002567.SZ,农林牧渔,唐人神
002568.SZ,食品饮料,百润股份
002569.SZ,纺织服装,步森股份
002570.SZ,食品饮料,*ST因美
002571.SZ,轻工制造,德力股份
002572.SZ,轻工制造,索菲亚
002573.SZ,公用事业,清新环境
002574.SZ,轻工制造,明牌珠宝
002575.SZ,轻工制造,群兴玩具
002576.SZ,电气设备,通达动力
002577.SZ,计算机,雷柏科技
002578.SZ,有色金属,闽发铝业
002579.SZ,电子,中京电子
002580.SZ,电气设备,圣阳股份
002581.SZ,医药生物,未名医药
002582.SZ,食品饮料,好想你
002583.SZ,通信,海能达
002584.SZ,化工,西陇科学
002585.SZ,轻工制造,双星新材
002586.SZ,建筑装饰,围海股份
002587.SZ,电子,奥拓电子
002588.SZ,化工,史丹利
002589.SZ,医药生物,瑞康医药
002590.SZ,汽车,万安科技
002591.SZ,传媒,恒大高新
002592.SZ,汽车,八菱科技
002593.SZ,汽车,日上集团
002594.SZ,汽车,比亚迪
002595.SZ,机械设备,豪迈科技
002596.SZ,建筑材料,海南瑞泽
002597.SZ,化工,金禾实业
002598.SZ,机械设备,山东章鼓
002599.SZ,轻工制造,盛通股份
002600.SZ,电子,领益智造
002601.SZ,化工,龙蟒佰利
002602.SZ,传媒,世纪华通
002603.SZ,医药生物,以岭药业
002604.SZ,农林牧渔,*ST龙力
002605.SZ,轻工制造,姚记扑克
002606.SZ,电气设备,大连电瓷
002607.SZ,汽车,亚夏汽车
002608.SZ,公用事业,江苏国信
002609.SZ,计算机,捷顺科技
002610.SZ,电气设备,爱康科技
002611.SZ,汽车,东方精工
002612.SZ,纺织服装,朗姿股份
002613.SZ,机械设备,北玻股份
002614.SZ,家用电器,奥佳华
002615.SZ,轻工制造,哈尔斯
002616.SZ,家用电器,长青集团
002617.SZ,电气设备,露笑科技
002618.SZ,电子,丹邦科技
002619.SZ,传媒,艾格拉斯
002620.SZ,建筑装饰,瑞和股份
002621.SZ,机械设备,三垒股份
002622.SZ,电气设备,融钰集团
002623.SZ,建筑材料,亚玛顿
002624.SZ,传媒,完美世界
002625.SZ,汽车,光启技术
002626.SZ,医药生物,金达威
002627.SZ,交通运输,宜昌交运
002628.SZ,建筑装饰,成都路桥
002629.SZ,采掘,仁智股份
002630.SZ,电气设备,华西能源
002631.SZ,轻工制造,德尔未来
002632.SZ,化工,道明光学
002633.SZ,机械设备,申科股份
002634.SZ,纺织服装,棒杰股份
002635.SZ,电子,安洁科技
002636.SZ,电子,金安国纪
002637.SZ,化工,赞宇科技
002638.SZ,传媒,勤上股份
002639.SZ,机械设备,雪人股份
002640.SZ,商业贸易,跨境通
002641.SZ,建筑材料,永高股份
002642.SZ,计算机,荣之联
002643.SZ,化工,万润股份
002644.SZ,医药生物,佛慈制药
002645.SZ,机械设备,华宏科技
002646.SZ,食品饮料,青青稞酒
002647.SZ,非银金融,仁东控股
002648.SZ,化工,卫星石化
002649.SZ,计算机,博彦科技
002650.SZ,食品饮料,加加食品
002651.SZ,机械设备,利君股份
002652.SZ,建筑材料,扬子新材
002653.SZ,医药生物,海思科
002654.SZ,传媒,万润科技
002655.SZ,电子,共达电声
002656.SZ,纺织服装,摩登大道
002657.SZ,计算机,中科金财
002658.SZ,机械设备,雪迪龙
002659.SZ,传媒,凯文教育
002660.SZ,电子,茂硕电源
002661.SZ,食品饮料,克明面业
002662.SZ,汽车,京威股份
002663.SZ,建筑装饰,普邦股份
002664.SZ,汽车,长鹰信质
002665.SZ,电气设备,首航节能
002666.SZ,化工,德联集团
002667.SZ,机械设备,鞍重股份
002668.SZ,家用电器,奥马电器
002669.SZ,化工,康达新材
002670.SZ,非银金融,国盛金控
002671.SZ,建筑材料,龙泉股份
002672.SZ,公用事业,东江环保
002673.SZ,非银金融,西部证券
002674.SZ,纺织服装,兴业科技
002675.SZ,医药生物,东诚药业
002676.SZ,家用电器,顺威股份
002677.SZ,家用电器,浙江美大
002678.SZ,轻工制造,珠江钢琴
002679.SZ,农林牧渔,福建金森
002680.SZ,医药生物,ST长生
002681.SZ,家用电器,奋达科技
002682.SZ,交通运输,龙洲股份
002683.SZ,化工,宏大爆破
002684.SZ,汽车,猛狮科技
002685.SZ,机械设备,华东重机
002686.SZ,机械设备,亿利达
002687.SZ,纺织服装,乔治白
002688.SZ,农林牧渔,金河生物
002689.SZ,机械设备,远大智能
002690.SZ,机械设备,美亚光电
002691.SZ,机械设备,冀凯股份
002692.SZ,电气设备,睿康股份
002693.SZ,医药生物,双成药业
002694.SZ,建筑材料,顾地科技
002695.SZ,食品饮料,煌上煌
002696.SZ,农林牧渔,百洋股份
002697.SZ,商业贸易,红旗连锁
002698.SZ,机械设备,博实股份
002699.SZ,传媒,美盛文化
002700.SZ,公用事业,新疆浩源
002701.SZ,轻工制造,奥瑞金
002702.SZ,食品饮料,海欣食品
002703.SZ,汽车,浙江世宝
002705.SZ,家用电器,新宝股份
002706.SZ,电气设备,良信电器
002707.SZ,休闲服务,众信旅游
002708.SZ,汽车,光洋股份
002709.SZ,化工,天赐材料
002711.SZ,交通运输,欧浦智网
002712.SZ,传媒,思美传媒
002713.SZ,建筑装饰,东易日盛
002714.SZ,农林牧渔,牧原股份
002715.SZ,汽车,登云股份
002716.SZ,有色金属,金贵银业
002717.SZ,建筑装饰,岭南股份
002718.SZ,建筑材料,友邦吊顶
002719.SZ,食品饮料,麦趣尔
002721.SZ,轻工制造,金一文化
002722.SZ,机械设备,金轮股份
002723.SZ,家用电器,金莱特
002724.SZ,电子,海洋王
002725.SZ,汽车,跃岭股份
002726.SZ,食品饮料,龙大肉食
002727.SZ,医药生物,一心堂
002728.SZ,医药生物,特一药业
002729.SZ,电子,好利来
002730.SZ,机械设备,电光科技
002731.SZ,轻工制造,萃华珠宝
002732.SZ,食品饮料,燕塘乳业
002733.SZ,电气设备,雄韬股份
002734.SZ,化工,利民股份
002735.SZ,轻工制造,王子新材
002736.SZ,非银金融,国信证券
002737.SZ,医药生物,葵花药业
002738.SZ,采掘,中矿资源
002739.SZ,传媒,万达电影
002740.SZ,轻工制造,爱迪尔
002741.SZ,化工,光华科技
002742.SZ,建筑材料,三圣股份
002743.SZ,建筑装饰,富煌钢构
002745.SZ,电子,木林森
002746.SZ,农林牧渔,仙坛股份
002747.SZ,电气设备,埃斯顿
002748.SZ,化工,世龙实业
002749.SZ,化工,国光股份
002750.SZ,医药生物,龙津药业
002751.SZ,轻工制造,易尚展示
002752.SZ,轻工制造,昇兴股份
002753.SZ,化工,永东股份
002755.SZ,建筑装饰,东方新星
002756.SZ,钢铁,永兴特钢
002757.SZ,机械设备,南兴装备
002758.SZ,医药生物,华通医药
002759.SZ,家用电器,天际股份
002760.SZ,机械设备,凤形股份
002761.SZ,纺织服装,多喜爱
002762.SZ,纺织服装,金发拉比
002763.SZ,纺织服装,汇洁股份
002765.SZ,汽车,蓝黛传动
002766.SZ,计算机,索菱股份
002767.SZ,电气设备,先锋电子
002768.SZ,化工,国恩股份
002769.SZ,交通运输,普路通
002770.SZ,食品饮料,科迪乳业
002771.SZ,计算机,真视通
002772.SZ,农林牧渔,众兴菌业
002773.SZ,医药生物,康弘药业
002774.SZ,机械设备,快意电梯
002775.SZ,建筑装饰,文科园林
002776.SZ,纺织服装,柏堡龙
002777.SZ,计算机,久远银海
002778.SZ,化工,高科石化
002779.SZ,机械设备,中坚科技
002780.SZ,纺织服装,三夫户外
002781.SZ,建筑装饰,奇信股份
002782.SZ,电子,可立克
002783.SZ,化工,凯龙股份
002785.SZ,建筑材料,万里石
002786.SZ,机械设备,银宝山新
002787.SZ,轻工制造,华源控股
002788.SZ,医药生物,鹭燕医药
002789.SZ,建筑装饰,建艺集团
002790.SZ,轻工制造,瑞尔特
002791.SZ,建筑材料,坚朗五金
002792.SZ,通信,通宇通讯
002793.SZ,机械设备,东音股份
002795.SZ,建筑材料,永和智控
002796.SZ,机械设备,世嘉科技
002797.SZ,非银金融,第一创业
002798.SZ,轻工制造,帝欧家居
002799.SZ,轻工制造,环球印务
002800.SZ,交通运输,天顺股份
002801.SZ,电气设备,微光股份
002802.SZ,化工,洪汇新材
002803.SZ,轻工制造,吉宏股份
002805.SZ,化工,丰元股份
002806.SZ,有色金属,华锋股份
002807.SZ,银行,江阴银行
002808.SZ,电子,苏州恒久
002809.SZ,化工,红墙股份
002810.SZ,化工,山东赫达
002811.SZ,建筑装饰,亚泰国际
002812.SZ,轻工制造,创新股份
002813.SZ,通信,路畅科技
002815.SZ,电子,崇达技术
002816.SZ,机械设备,和科达
002817.SZ,医药生物,黄山胶囊
002818.SZ,商业贸易,富森美
002819.SZ,机械设备,东方中科
002820.SZ,食品饮料,桂发祥
002821.SZ,医药生物,凯莱英
002822.SZ,建筑装饰,中装建设
002823.SZ,电气设备,凯中精密
002824.SZ,有色金属,和胜股份
002825.SZ,化工,纳尔股份
002826.SZ,医药生物,易明医药
002827.SZ,化工,高争民爆
002828.SZ,采掘,贝肯能源
002829.SZ,国防军工,星网宇达
002830.SZ,建筑装饰,名雕股份
002831.SZ,轻工制造,裕同科技
002832.SZ,纺织服装,比音勒芬
002833.SZ,机械设备,弘亚数控
002835.SZ,计算机,同为股份
002836.SZ,轻工制造,新宏泽
002837.SZ,机械设备,英维克
002838.SZ,化工,道恩股份
002839.SZ,银行,张家港行
002840.SZ,食品饮料,华统股份
002841.SZ,电子,视源股份
002842.SZ,有色金属,翔鹭钨业
002843.SZ,机械设备,泰嘉股份
002845.SZ,电子,同兴达
002846.SZ,轻工制造,英联股份
002847.SZ,食品饮料,盐津铺子
002848.SZ,家用电器,高斯贝尔
002849.SZ,机械设备,威星智能
002850.SZ,电子,科达利
002851.SZ,电气设备,麦格米特
002852.SZ,农林牧渔,道道全
002853.SZ,轻工制造,皮阿诺
002855.SZ,电子,捷荣技术
002856.SZ,建筑装饰,美芝股份
002857.SZ,机械设备,三晖电气
002858.SZ,传媒,力盛赛车
002859.SZ,电子,洁美科技
002860.SZ,家用电器,星帅尔
002861.SZ,电子,瀛通通讯
002862.SZ,轻工制造,实丰文化
002863.SZ,汽车,今飞凯达
002864.SZ,医药生物,盘龙药业
002865.SZ,汽车,钧达股份
002866.SZ,电子,传艺科技
002867.SZ,轻工制造,周大生
002868.SZ,农林牧渔,绿康生化
002869.SZ,计算机,金溢科技
002870.SZ,机械设备,香山股份
002871.SZ,机械设备,伟隆股份
002872.SZ,医药生物,天圣制药
002873.SZ,医药生物,新天药业
002875.SZ,纺织服装,安奈儿
002876.SZ,电子,三利谱
002877.SZ,机械设备,智能自控
002878.SZ,传媒,元隆雅图
002879.SZ,电气设备,长缆科技
002880.SZ,医药生物,卫光生物
002881.SZ,电子,美格智能
002882.SZ,电气设备,金龙羽
002883.SZ,建筑装饰,中设股份
002884.SZ,机械设备,凌霄泵业
002885.SZ,电子,京泉华
002886.SZ,化工,沃特股份
002887.SZ,建筑装饰,绿茵生态
002888.SZ,电子,惠威科技
002889.SZ,交通运输,东方嘉盛
002890.SZ,机械设备,弘宇股份
002891.SZ,农林牧渔,中宠股份
002892.SZ,电气设备,科力尔
002893.SZ,公用事业,华通热力
002895.SZ,化工,川恒股份
002896.SZ,机械设备,中大力德
002897.SZ,通信,意华股份
002898.SZ,医药生物,赛隆药业
002899.SZ,轻工制造,英派斯
002900.SZ,医药生物,哈三联
002901.SZ,医药生物,大博医疗
002902.SZ,电子,铭普光磁
002903.SZ,机械设备,宇环数控
002905.SZ,传媒,金逸影视
002906.SZ,汽车,华阳集团
002907.SZ,医药生物,华森制药
002908.SZ,通信,德生科技
002909.SZ,化工,集泰股份
002910.SZ,食品饮料,庄园牧场
002911.SZ,公用事业,佛燃股份
002912.SZ,计算机,中新赛克
002913.SZ,电子,奥士康
002915.SZ,化工,中欣氟材
002916.SZ,电子,深南电路
002917.SZ,化工,金奥博
002918.SZ,建筑材料,蒙娜丽莎
002919.SZ,化工,名臣健康
002920.SZ,计算机,德赛西威
002921.SZ,汽车,联诚精密
002922.SZ,电子,伊戈尔
002923.SZ,医药生物,润都股份
002925.SZ,电子,盈趣科技
002926.SZ,非银金融,华西证券
002927.SZ,电气设备,泰永长征
002928.SZ,交通运输,华夏航空
002929.SZ,通信,润建通信
002930.SZ,交通运输,宏川智慧
002931.SZ,汽车,锋龙股份
002932.SZ,医药生物,明德生物
300001.SZ,电气设备,特锐德
300002.SZ,计算机,神州泰岳
300003.SZ,医药生物,乐普医疗
300004.SZ,机械设备,南风股份
300005.SZ,纺织服装,探路者
300006.SZ,医药生物,莱美药业
300007.SZ,机械设备,汉威科技
300008.SZ,国防军工,天海防务
300009.SZ,医药生物,安科生物
300010.SZ,计算机,立思辰
300011.SZ,电气设备,鼎汉技术
300012.SZ,综合,华测检测
300013.SZ,交通运输,新宁物流
300014.SZ,电子,亿纬锂能
300015.SZ,医药生物,爱尔眼科
300016.SZ,医药生物,北陆药业
300017.SZ,通信,网宿科技
300018.SZ,电气设备,中元股份
300019.SZ,化工,硅宝科技
300020.SZ,计算机,银江股份
300021.SZ,农林牧渔,大禹节水
300022.SZ,商业贸易,吉峰农机
300023.SZ,非银金融,宝德股份
300024.SZ,机械设备,机器人
300025.SZ,通信,华星创业
300026.SZ,医药生物,红日药业
300027.SZ,传媒,华谊兄弟
300028.SZ,通信,金亚科技
300029.SZ,电气设备,天龙光电
300030.SZ,医药生物,阳普医疗
300031.SZ,传媒,宝通科技
300032.SZ,电子,金龙机电
300033.SZ,计算机,同花顺
300034.SZ,国防军工,钢研高纳
300035.SZ,机械设备,中科电气
300036.SZ,计算机,超图软件
300037.SZ,化工,新宙邦
300038.SZ,传媒,梅泰诺
300039.SZ,医药生物,上海凯宝
300040.SZ,电气设备,九洲电气
300041.SZ,化工,回天新材
300042.SZ,计算机,朗科科技
300043.SZ,传媒,星辉娱乐
300044.SZ,计算机,赛为智能
300045.SZ,计算机,华力创通
300046.SZ,电子,台基股份
300047.SZ,计算机,天源迪科
300048.SZ,电气设备,合康新能
300049.SZ,医药生物,福瑞股份
300050.SZ,通信,世纪鼎利
300051.SZ,传媒,三五互联
300052.SZ,传媒,中青宝
300053.SZ,电子,欧比特
300054.SZ,化工,鼎龙股份
300055.SZ,公用事业,万邦达
300056.SZ,公用事业,三维丝
300057.SZ,轻工制造,万顺股份
300058.SZ,传媒,蓝色光标
300059.SZ,传媒,东方财富
300061.SZ,传媒,康旗股份
300062.SZ,电气设备,中能电气
300063.SZ,传媒,天龙集团
300064.SZ,机械设备,豫金刚石
300065.SZ,计算机,海兰信
300066.SZ,机械设备,三川智慧
300067.SZ,化工,安诺其
300068.SZ,电气设备,南都电源
300069.SZ,电气设备,金利华电
300070.SZ,公用事业,碧水源
300071.SZ,传媒,华谊嘉信
300072.SZ,公用事业,三聚环保
300073.SZ,化工,当升科技
300074.SZ,计算机,华平股份
300075.SZ,计算机,数字政通
300076.SZ,电子,GQY视讯
300077.SZ,电子,国民技术
300078.SZ,电子,思创医惠
300079.SZ,计算机,数码科技
300080.SZ,机械设备,易成新能
300081.SZ,通信,恒信东方
300082.SZ,化工,奥克股份
300083.SZ,电子,劲胜智能
300084.SZ,机械设备,海默科技
300085.SZ,计算机,银之杰
300086.SZ,医药生物,康芝药业
300087.SZ,农林牧渔,荃银高科
300088.SZ,电子,长信科技
300089.SZ,轻工制造,文化长城
300090.SZ,公用事业,盛运环保
300091.SZ,机械设备,金通灵
300092.SZ,机械设备,科新机电
300093.SZ,建筑材料,金刚玻璃
300094.SZ,农林牧渔,国联水产
300095.SZ,机械设备,华伍股份
300096.SZ,计算机,易联众
300097.SZ,机械设备,智云股份
300098.SZ,通信,高新兴
300099.SZ,机械设备,精准信息
300100.SZ,汽车,双林股份
300101.SZ,国防军工,振芯科技
300102.SZ,电子,乾照光电
300103.SZ,机械设备,达刚路机
300104.SZ,传媒,乐视网
300105.SZ,电气设备,龙源技术
300106.SZ,农林牧渔,西部牧业
300107.SZ,化工,建新股份
300108.SZ,医药生物,吉药控股
300109.SZ,化工,新开源
300110.SZ,医药生物,华仁药业
300111.SZ,电气设备,向日葵
300112.SZ,机械设备,万讯自控
300113.SZ,传媒,顺网科技
300114.SZ,机械设备,中航电测
300115.SZ,电子,长盈精密
300116.SZ,电气设备,坚瑞沃能
300117.SZ,建筑材料,嘉寓股份
300118.SZ,电气设备,东方日升
300119.SZ,农林牧渔,瑞普生物
300120.SZ,电气设备,经纬辉开
300121.SZ,化工,阳谷华泰
300122.SZ,医药生物,智飞生物
300123.SZ,国防军工,亚光科技
300124.SZ,电气设备,汇川技术
300125.SZ,公用事业,易世达
300126.SZ,机械设备,锐奇股份
300127.SZ,有色金属,银河磁体
300128.SZ,电子,锦富技术
300129.SZ,电气设备,泰胜风能
300130.SZ,计算机,新国都
300131.SZ,电子,英唐智控
300132.SZ,化工,青松股份
300133.SZ,传媒,华策影视
300134.SZ,通信,大富科技
300135.SZ,化工,宝利国际
300136.SZ,电子,信维通信
300137.SZ,公用事业,先河环保
300138.SZ,农林牧渔,晨光生物
300139.SZ,电子,晓程科技
300140.SZ,公用事业,中环装备
300141.SZ,电气设备,和顺电气
300142.SZ,医药生物,沃森生物
300143.SZ,医药生物,星普医科
300144.SZ,休闲服务,宋城演艺
300145.SZ,机械设备,中金环境
300146.SZ,食品饮料,汤臣倍健
300147.SZ,医药生物,香雪制药
300148.SZ,传媒,天舟文化
300149.SZ,农林牧渔,量子生物
300150.SZ,计算机,世纪瑞尔
300151.SZ,机械设备,昌红科技
300152.SZ,公用事业,科融环境
300153.SZ,电气设备,科泰电源
300154.SZ,机械设备,瑞凌股份
300155.SZ,计算机,安居宝
300156.SZ,公用事业,神雾环保
300157.SZ,采掘,恒泰艾普
300158.SZ,医药生物,振东制药
300159.SZ,国防军工,新研股份
300160.SZ,家用电器,秀强股份
300161.SZ,机械设备,华中数控
300162.SZ,电子,雷曼股份
300163.SZ,化工,先锋新材
300164.SZ,采掘,通源石油
300165.SZ,机械设备,天瑞仪器
300166.SZ,计算机,东方国信
300167.SZ,计算机,迪威迅
300168.SZ,计算机,万达信息
300169.SZ,化工,天晟新材
300170.SZ,计算机,汉得信息
300171.SZ,医药生物,东富龙
300172.SZ,公用事业,中电环保
300173.SZ,机械设备,智慧松德
300174.SZ,化工,元力股份
300175.SZ,农林牧渔,朗源股份
300176.SZ,非银金融,鸿特科技
300177.SZ,计算机,中海达
300178.SZ,休闲服务,腾邦国际
300179.SZ,机械设备,四方达
300180.SZ,化工,华峰超纤
300181.SZ,医药生物,佐力药业
300182.SZ,计算机,捷成股份
300183.SZ,通信,东软载波
300184.SZ,电子,力源信息
300185.SZ,电气设备,通裕重工
300187.SZ,公用事业,永清环保
300188.SZ,计算机,美亚柏科
300189.SZ,农林牧渔,神农基因
300190.SZ,公用事业,维尔利
300191.SZ,采掘,潜能恒信
300192.SZ,化工,科斯伍德
300193.SZ,机械设备,佳士科技
300194.SZ,医药生物,福安药业
300195.SZ,机械设备,长荣股份
300196.SZ,化工,长海股份
300197.SZ,建筑装饰,铁汉生态
300198.SZ,建筑材料,纳川股份
300199.SZ,医药生物,翰宇药业
300200.SZ,化工,高盟新材
300201.SZ,机械设备,海伦哲
300202.SZ,计算机,聚龙股份
300203.SZ,公用事业,聚光科技
300204.SZ,医药生物,舒泰神
300205.SZ,通信,天喻信息
300206.SZ,医药生物,理邦仪器
300207.SZ,电子,欣旺达
300208.SZ,电气设备,恒顺众昇
300209.SZ,计算机,天泽信息
300210.SZ,机械设备,森远股份
300211.SZ,通信,亿通科技
300212.SZ,计算机,易华录
300213.SZ,通信,佳讯飞鸿
300214.SZ,化工,日科化学
300215.SZ,电气设备,电科院
300216.SZ,医药生物,千山药机
300217.SZ,家用电器,东方电热
300218.SZ,化工,安利股份
300219.SZ,电子,鸿利智汇
300220.SZ,电子,金运激光
300221.SZ,化工,银禧科技
300222.SZ,机械设备,科大智能
300223.SZ,电子,北京君正
300224.SZ,有色金属,正海磁材
300225.SZ,化工,金力泰
300226.SZ,传媒,上海钢联
300227.SZ,电子,光韵达
300228.SZ,机械设备,富瑞特装
300229.SZ,计算机,拓尔思
300230.SZ,化工,永利股份
300231.SZ,计算机,银信科技
300232.SZ,电子,洲明科技
300233.SZ,医药生物,金城医药
300234.SZ,建筑材料,开尔新材
300235.SZ,计算机,方直科技
300236.SZ,化工,上海新阳
300237.SZ,建筑装饰,美晨生态
300238.SZ,医药生物,冠昊生物
300239.SZ,医药生物,东宝生物
300240.SZ,交通运输,飞力达
300241.SZ,电子,瑞丰光电
300242.SZ,传媒,佳云科技
300243.SZ,化工,瑞丰高材
300244.SZ,医药生物,迪安诊断
300245.SZ,计算机,天玑科技
300246.SZ,医药生物,宝莱特
300247.SZ,家用电器,乐金健康
300248.SZ,计算机,新开普
300249.SZ,家用电器,依米康
300250.SZ,计算机,初灵信息
300251.SZ,传媒,光线传媒
300252.SZ,通信,金信诺
300253.SZ,计算机,卫宁健康
300254.SZ,医药生物,仟源医药
300255.SZ,医药生物,常山药业
300256.SZ,电子,星星科技
300257.SZ,机械设备,开山股份
300258.SZ,汽车,精锻科技
300259.SZ,机械设备,新天科技
300260.SZ,机械设备,新莱应材
300261.SZ,化工,雅本化学
300262.SZ,公用事业,巴安水务
300263.SZ,公用事业,隆华节能
300264.SZ,计算机,佳创视讯
300265.SZ,电气设备,通光线缆
300266.SZ,公用事业,兴源环境
300267.SZ,医药生物,尔康制药
300268.SZ,农林牧渔,佳沃股份
300269.SZ,传媒,联建光电
300270.SZ,计算机,中威电子
300271.SZ,计算机,华宇软件
300272.SZ,家用电器,开能健康
300273.SZ,医药生物,和佳股份
300274.SZ,电气设备,阳光电源
300275.SZ,机械设备,梅安森
300276.SZ,机械设备,三丰智能
300277.SZ,计算机,海联讯
300278.SZ,机械设备,华昌达
300279.SZ,电子,和晶科技
300280.SZ,机械设备,紫天科技
300281.SZ,机械设备,金明精机
300282.SZ,电子,三盛教育
300283.SZ,电气设备,温州宏丰
300284.SZ,建筑装饰,苏交科
300285.SZ,化工,国瓷材料
300286.SZ,电气设备,安科瑞
300287.SZ,计算机,飞利信
300288.SZ,计算机,朗玛信息
300289.SZ,医药生物,利德曼
300290.SZ,计算机,荣科科技
300291.SZ,传媒,华录百纳
300292.SZ,通信,吴通控股
300293.SZ,机械设备,蓝英装备
300294.SZ,医药生物,博雅生物
300295.SZ,传媒,三六五网
300296.SZ,电子,利亚德
300297.SZ,计算机,蓝盾股份
300298.SZ,医药生物,三诺生物
300299.SZ,传媒,富春股份
300300.SZ,计算机,汉鼎宇佑
300301.SZ,电子,长方集团
300302.SZ,计算机,同有科技
300303.SZ,电子,聚飞光电
300304.SZ,汽车,云意电气
300305.SZ,化工,裕兴股份
300306.SZ,机械设备,远方信息
300307.SZ,机械设备,慈星股份
300308.SZ,通信,中际旭创
300309.SZ,非银金融,吉艾科技
300310.SZ,通信,宜通世纪
300311.SZ,计算机,任子行
300312.SZ,通信,邦讯技术
300313.SZ,农林牧渔,天山生物
300314.SZ,医药生物,戴维医疗
300315.SZ,传媒,掌趣科技
300316.SZ,电气设备,晶盛机电
300317.SZ,电气设备,珈伟股份
300318.SZ,医药生物,博晖创新
300319.SZ,电子,麦捷科技
300320.SZ,化工,海达股份
300321.SZ,化工,同大股份
300322.SZ,电子,硕贝德
300323.SZ,电子,华灿光电
300324.SZ,计算机,旋极信息
300325.SZ,化工,德威新材
300326.SZ,医药生物,凯利泰
300327.SZ,电子,中颖电子
300328.SZ,有色金属,宜安科技
300329.SZ,轻工制造,海伦钢琴
300330.SZ,计算机,华虹计通
300331.SZ,电子,苏大维格
300332.SZ,公用事业,天壕环境
300333.SZ,计算机,兆日科技
300334.SZ,公用事业,津膜科技
300335.SZ,公用事业,迪森股份
300336.SZ,传媒,新文化
300337.SZ,有色金属,银邦股份
300338.SZ,传媒,开元股份
300339.SZ,计算机,润和软件
300340.SZ,电子,科恒股份
300341.SZ,机械设备,麦迪电气
300342.SZ,家用电器,天银机电
300343.SZ,传媒,联创互联
300344.SZ,建筑材料,太空智造
300345.SZ,机械设备,红宇新材
300346.SZ,电子,南大光电
300347.SZ,医药生物,泰格医药
300348.SZ,计算机,长亮科技
300349.SZ,机械设备,金卡智能
300350.SZ,交通运输,华鹏飞
300351.SZ,机械设备,永贵电器
300352.SZ,计算机,北信源
300353.SZ,通信,东土科技
300354.SZ,机械设备,东华测试
300355.SZ,建筑装饰,蒙草生态
300356.SZ,电气设备,光一科技
300357.SZ,医药生物,我武生物
300358.SZ,医药生物,楚天科技
300359.SZ,传媒,全通教育
300360.SZ,电气设备,炬华科技
300362.SZ,机械设备,天翔环境
300363.SZ,医药生物,博腾股份
300364.SZ,传媒,中文在线
300365.SZ,计算机,恒华科技
300366.SZ,计算机,创意信息
300367.SZ,计算机,东方网力
300368.SZ,计算机,汇金股份
300369.SZ,计算机,绿盟科技
300370.SZ,机械设备,安控科技
300371.SZ,机械设备,汇中股份
300373.SZ,电子,扬杰科技
300374.SZ,建筑材料,恒通科技
300375.SZ,汽车,鹏翎股份
300376.SZ,电气设备,易事特
300377.SZ,计算机,赢时胜
300378.SZ,计算机,鼎捷软件
300379.SZ,计算机,东方通
300380.SZ,计算机,安硕信息
300381.SZ,医药生物,溢多利
300382.SZ,机械设备,斯莱克
300383.SZ,通信,光环新网
300384.SZ,化工,三联虹普
300385.SZ,机械设备,雪浪环境
300386.SZ,计算机,飞天诚信
300387.SZ,化工,富邦股份
300388.SZ,公用事业,国祯环保
300389.SZ,电子,艾比森
300390.SZ,电子,天华超净
300391.SZ,机械设备,康跃科技
300392.SZ,传媒,腾信股份
300393.SZ,电气设备,中来股份
300394.SZ,通信,天孚通信
300395.SZ,有色金属,菲利华
300396.SZ,医药生物,迪瑞医疗
300397.SZ,国防军工,天和防务
300398.SZ,化工,飞凯材料
300399.SZ,计算机,京天利
300400.SZ,机械设备,劲拓股份
300401.SZ,医药生物,花园生物
300402.SZ,机械设备,宝色股份
300403.SZ,家用电器,地尔汉宇
300404.SZ,医药生物,博济医药
300405.SZ,化工,科隆股份
300406.SZ,医药生物,九强生物
300407.SZ,电气设备,凯发电气
300408.SZ,电子,三环集团
300409.SZ,化工,道氏技术
300410.SZ,机械设备,正业科技
300411.SZ,机械设备,金盾股份
300412.SZ,医药生物,迦南科技
300413.SZ,商业贸易,芒果超媒
300414.SZ,通信,中光防雷
300415.SZ,机械设备,伊之密
300416.SZ,机械设备,苏试试验
300417.SZ,机械设备,南华仪器
300418.SZ,传媒,昆仑万维
300419.SZ,计算机,浩丰科技
300420.SZ,机械设备,五洋停车
300421.SZ,机械设备,力星股份
300422.SZ,公用事业,博世科
300423.SZ,电气设备,鲁亿通
300424.SZ,国防军工,航新科技
300425.SZ,公用事业,环能科技
300426.SZ,传媒,唐德影视
300427.SZ,电气设备,红相股份
300428.SZ,有色金属,四通新材
300429.SZ,化工,强力新材
300430.SZ,机械设备,诚益通
300431.SZ,传媒,暴风集团
300432.SZ,汽车,富临精工
300433.SZ,电子,蓝思科技
300434.SZ,医药生物,金石东方
300435.SZ,机械设备,中泰股份
300436.SZ,医药生物,广生堂
300437.SZ,化工,清水源
300438.SZ,电子,鹏辉能源
300439.SZ,医药生物,美康生物
300440.SZ,计算机,运达科技
300441.SZ,机械设备,鲍斯股份
300442.SZ,机械设备,普丽盛
300443.SZ,电气设备,金雷风电
300444.SZ,电气设备,双杰电气
300445.SZ,机械设备,康斯特
300446.SZ,化工,乐凯新材
300447.SZ,电气设备,全信股份
300448.SZ,计算机,浩云科技
300449.SZ,计算机,汉邦高科
300450.SZ,机械设备,先导智能
300451.SZ,计算机,创业软件
300452.SZ,医药生物,山河药辅
300453.SZ,医药生物,三鑫医疗
300454.SZ,计算机,深信服
300455.SZ,计算机,康拓红外
300456.SZ,国防军工,耐威科技
300457.SZ,机械设备,赢合科技
300458.SZ,电子,全志科技
300459.SZ,传媒,金科文化
300460.SZ,电子,惠伦晶体
300461.SZ,机械设备,田中精机
300462.SZ,计算机,华铭智能
300463.SZ,医药生物,迈克生物
300464.SZ,机械设备,星徽精密
300465.SZ,计算机,高伟达
300466.SZ,电气设备,赛摩电气
300467.SZ,传媒,迅游科技
300468.SZ,计算机,四方精创
300469.SZ,计算机,信息发展
300470.SZ,机械设备,日机密封
300471.SZ,机械设备,厚普股份
300472.SZ,机械设备,新元科技
300473.SZ,汽车,德尔股份
300474.SZ,国防军工,景嘉微
300475.SZ,家用电器,聚隆科技
300476.SZ,电子,胜宏科技
300477.SZ,电气设备,合纵科技
300478.SZ,化工,杭州高新
300479.SZ,计算机,神思电子
300480.SZ,机械设备,光力科技
300481.SZ,化工,濮阳惠成
300482.SZ,医药生物,万孚生物
300483.SZ,机械设备,沃施股份
300484.SZ,电气设备,蓝海华腾
300485.SZ,医药生物,赛升药业
300486.SZ,机械设备,东杰智能
300487.SZ,化工,蓝晓科技
300488.SZ,机械设备,恒锋工具
300489.SZ,有色金属,中飞股份
300490.SZ,电气设备,华自科技
300491.SZ,电气设备,通合科技
300492.SZ,建筑装饰,山鼎设计
300493.SZ,电子,润欣科技
300494.SZ,传媒,盛天网络
300495.SZ,建筑装饰,美尚生态
300496.SZ,计算机,中科创达
300497.SZ,医药生物,富祥股份
300498.SZ,农林牧渔,温氏股份
300499.SZ,机械设备,高澜股份
300500.SZ,建筑装饰,启迪设计
300501.SZ,轻工制造,海顺新材
300502.SZ,通信,新易盛
300503.SZ,机械设备,昊志机电
300504.SZ,通信,天邑股份
300505.SZ,化工,川金诺
300506.SZ,建筑装饰,名家汇
300507.SZ,汽车,苏奥传感
300508.SZ,计算机,维宏股份
300509.SZ,机械设备,新美星
300510.SZ,电气设备,金冠股份
300511.SZ,农林牧渔,雪榕生物
300512.SZ,机械设备,中亚股份
300513.SZ,计算机,恒泰实达
300514.SZ,电气设备,友讯达
300515.SZ,机械设备,三德科技
300516.SZ,电子,久之洋
300517.SZ,建筑装饰,海波重科
300518.SZ,传媒,盛讯达
300519.SZ,医药生物,新光药业
300520.SZ,计算机,科大国创
300521.SZ,机械设备,爱司凯
300522.SZ,化工,世名科技
300523.SZ,计算机,辰安科技
300525.SZ,计算机,博思软件
300526.SZ,纺织服装,中潜股份
300527.SZ,国防军工,中国应急
300528.SZ,传媒,幸福蓝海
300529.SZ,医药生物,健帆生物
300530.SZ,化工,达志科技
300531.SZ,通信,优博讯
300532.SZ,计算机,今天国际
300533.SZ,传媒,冰川网络
300534.SZ,医药生物,陇神戎发
300535.SZ,化工,达威股份
300536.SZ,建筑装饰,农尚环境
300537.SZ,化工,广信材料
300538.SZ,化工,同益股份
300539.SZ,化工,横河模具
300540.SZ,机械设备,深冷股份
300541.SZ,计算机,先进数通
300542.SZ,计算机,新晨科技
300543.SZ,电子,朗科智能
300545.SZ,电子,联得装备
300546.SZ,计算机,雄帝科技
300547.SZ,汽车,川环科技
300548.SZ,通信,博创科技
300549.SZ,机械设备,优德精密
300550.SZ,计算机,和仁科技
300551.SZ,机械设备,古鳌科技
300552.SZ,计算机,万集科技
300553.SZ,机械设备,集智股份
300554.SZ,机械设备,三超新材
300555.SZ,通信,路通视信
300556.SZ,计算机,丝路视觉
300557.SZ,机械设备,理工光科
300558.SZ,医药生物,贝达药业
300559.SZ,计算机,佳发教育
300560.SZ,通信,中富通
300561.SZ,计算机,汇金科技
300562.SZ,医药生物,乐心医疗
300563.SZ,通信,神宇股份
300565.SZ,通信,科信技术
300566.SZ,电子,激智科技
300567.SZ,机械设备,精测电子
300568.SZ,化工,星源材质
300569.SZ,电气设备,天能重工
300570.SZ,通信,太辰光
300571.SZ,通信,平治信息
300572.SZ,机械设备,安车检测
300573.SZ,医药生物,兴齐眼药
300575.SZ,化工,中旗股份
300576.SZ,化工,容大感光
300577.SZ,纺织服装,开润股份
300578.SZ,通信,会畅通讯
300579.SZ,计算机,数字认证
300580.SZ,汽车,贝斯特
300581.SZ,国防军工,晨曦航空
300582.SZ,电子,英飞特
300583.SZ,医药生物,赛托生物
300584.SZ,医药生物,海辰药业
300585.SZ,汽车,奥联电子
300586.SZ,化工,美联新材
300587.SZ,化工,天铁股份
300588.SZ,计算机,熙菱信息
300589.SZ,国防军工,江龙船艇
300590.SZ,通信,移为通信
300591.SZ,纺织服装,万里马
300592.SZ,建筑装饰,华凯创意
300593.SZ,电气设备,新雷能
300595.SZ,医药生物,欧普康视
300596.SZ,化工,利安隆
300597.SZ,通信,吉大通信
300598.SZ,计算机,诚迈科技
300599.SZ,建筑材料,雄塑科技
300600.SZ,国防军工,瑞特股份
300601.SZ,医药生物,康泰生物
300602.SZ,电子,飞荣达
300603.SZ,通信,立昂技术
300604.SZ,机械设备,长川科技
300605.SZ,计算机,恒锋信息
300606.SZ,机械设备,金太阳
300607.SZ,机械设备,拓斯达
300608.SZ,计算机,思特奇
300609.SZ,计算机,汇纳科技
300610.SZ,化工,晨化股份
300611.SZ,汽车,美力科技
300612.SZ,传媒,宣亚国际
300613.SZ,电子,富瀚微
300615.SZ,通信,欣天科技
300616.SZ,轻工制造,尚品宅配
300617.SZ,电气设备,安靠智电
300618.SZ,有色金属,寒锐钴业
300619.SZ,机械设备,金银河
300620.SZ,通信,光库科技
300621.SZ,建筑装饰,维业股份
300622.SZ,商业贸易,博士眼镜
300623.SZ,电子,捷捷微电
300624.SZ,计算机,万兴科技
300625.SZ,电子,三雄极光
300626.SZ,电气设备,华瑞股份
300627.SZ,计算机,华测导航
300628.SZ,通信,亿联网络
300629.SZ,机械设备,新劲刚
300630.SZ,医药生物,普利制药
300631.SZ,公用事业,久吾高科
300632.SZ,电子,光莆股份
300633.SZ,医药生物,开立医疗
300634.SZ,计算机,彩讯股份
300635.SZ,建筑装饰,达安股份
300636.SZ,医药生物,同和药业
300637.SZ,化工,扬帆新材
300638.SZ,通信,广和通
300639.SZ,医药生物,凯普生物
300640.SZ,轻工制造,德艺文创
300641.SZ,化工,正丹股份
300642.SZ,医药生物,透景生命
300643.SZ,汽车,万通智控
300644.SZ,化工,南京聚隆
300645.SZ,计算机,正元智慧
300647.SZ,电子,超频三
300648.SZ,机械设备,星云股份
300649.SZ,建筑装饰,杭州园林
300650.SZ,电子,太龙照明
300651.SZ,轻工制造,金陵体育
300652.SZ,汽车,雷迪克
300653.SZ,医药生物,正海生物
300654.SZ,传媒,世纪天鸿
300655.SZ,化工,晶瑞股份
300656.SZ,电子,民德电子
300657.SZ,电子,弘信电子
300658.SZ,纺织服装,延江股份
300659.SZ,计算机,中孚信息
300660.SZ,电气设备,江苏雷利
300661.SZ,电子,圣邦股份
300662.SZ,休闲服务,科锐国际
300663.SZ,计算机,科蓝软件
300664.SZ,公用事业,鹏鹞环保
300665.SZ,化工,飞鹿股份
300666.SZ,有色金属,江丰电子
300667.SZ,机械设备,必创科技
300668.SZ,建筑装饰,杰恩设计
300669.SZ,机械设备,沪宁股份
300670.SZ,电气设备,大烨智能
300671.SZ,电子,富满电子
300672.SZ,电子,国科微
300673.SZ,农林牧渔,佩蒂股份
300675.SZ,建筑装饰,建科院
300676.SZ,医药生物,华大基因
300677.SZ,医药生物,英科医疗
300678.SZ,计算机,中科信息
300679.SZ,电子,电连技术
300680.SZ,汽车,隆盛科技
300681.SZ,汽车,英搏尔
300682.SZ,计算机,朗新科技
300683.SZ,医药生物,海特生物
300684.SZ,化工,中石科技
300685.SZ,医药生物,艾德生物
300686.SZ,电子,智动力
300687.SZ,计算机,赛意信息
300688.SZ,综合,创业黑马
300689.SZ,通信,澄天伟业
300690.SZ,化工,双一科技
300691.SZ,电子,联合光电
300692.SZ,公用事业,中环环保
300693.SZ,电气设备,盛弘股份
300695.SZ,汽车,兆丰股份
300696.SZ,国防军工,爱乐达
300697.SZ,有色金属,电工合金
300698.SZ,通信,万马科技
300699.SZ,化工,光威复材
300700.SZ,机械设备,岱勒新材
300701.SZ,电子,森霸传感
300702.SZ,医药生物,天宇股份
300703.SZ,轻工制造,创源文化
300705.SZ,医药生物,九典制药
300706.SZ,有色金属,阿石创
300707.SZ,汽车,威唐工业
300708.SZ,电子,聚灿光电
300709.SZ,电子,精研科技
300710.SZ,通信,万隆光电
300711.SZ,通信,广哈通信
300712.SZ,建筑装饰,永福股份
300713.SZ,电气设备,英可瑞
300715.SZ,建筑材料,凯伦股份
300716.SZ,化工,国立科技
300717.SZ,化工,华信新材
300718.SZ,机械设备,长盛轴承
300719.SZ,国防军工,安达维尔
300720.SZ,机械设备,海川智能
300721.SZ,化工,怡达股份
300722.SZ,国防军工,新余国科
300723.SZ,医药生物,一品红
300724.SZ,机械设备,捷佳伟创
300725.SZ,医药生物,药石科技
300726.SZ,电子,宏达电子
300727.SZ,化工,润禾材料
300729.SZ,轻工制造,乐歌股份
300730.SZ,计算机,科创信息
300731.SZ,有色金属,科创新源
300732.SZ,建筑装饰,设研院
300733.SZ,汽车,西菱动力
300735.SZ,电子,光弘科技
300736.SZ,电子,百华悦邦
300737.SZ,建筑材料,科顺股份
300738.SZ,计算机,奥飞数据
300739.SZ,电子,明阳电路
300740.SZ,化工,御家汇
300741.SZ,食品饮料,华宝股份
300742.SZ,汽车,越博动力
300743.SZ,化工,天地数码
300745.SZ,电气设备,欣锐科技
300746.SZ,建筑装饰,汉嘉设计
300747.SZ,电子,锐科激光
300750.SZ,电气设备,宁德时代
600000.SH,银行,浦发银行
600004.SH,交通运输,白云机场
600006.SH,汽车,东风汽车
600007.SH,房地产,中国国贸
600008.SH,公用事业,首创股份
600009.SH,交通运输,上海机场
600010.SH,钢铁,包钢股份
600011.SH,公用事业,华能国际
600012.SH,交通运输,皖通高速
600015.SH,银行,华夏银行
600016.SH,银行,民生银行
600017.SH,交通运输,日照港
600018.SH,交通运输,上港集团
600019.SH,钢铁,宝钢股份
600020.SH,交通运输,中原高速
600021.SH,公用事业,上海电力
600022.SH,钢铁,山东钢铁
600023.SH,公用事业,浙能电力
600025.SH,公用事业,华能水电
600026.SH,交通运输,中远海能
600027.SH,公用事业,华电国际
600028.SH,化工,中国石化
600029.SH,交通运输,南方航空
600030.SH,非银金融,中信证券
600031.SH,机械设备,三一重工
600033.SH,交通运输,福建高速
600035.SH,交通运输,楚天高速
600036.SH,银行,招商银行
600037.SH,传媒,歌华有线
600038.SH,国防军工,中直股份
600039.SH,建筑装饰,四川路桥
600048.SH,房地产,保利地产
600050.SH,通信,中国联通
600051.SH,综合,宁波联合
600052.SH,房地产,浙江广厦
600053.SH,非银金融,九鼎投资
600054.SH,休闲服务,黄山旅游
600055.SH,医药生物,万东医疗
600056.SH,医药生物,中国医药
600057.SH,交通运输,厦门象屿
600058.SH,商业贸易,五矿发展
600059.SH,食品饮料,古越龙山
600060.SH,家用电器,海信电器
600061.SH,非银金融,国投资本
600062.SH,医药生物,华润双鹤
600063.SH,化工,皖维高新
600064.SH,房地产,南京高科
600066.SH,汽车,宇通客车
600067.SH,房地产,冠城大通
600068.SH,建筑装饰,葛洲坝
600069.SH,轻工制造,银鸽投资
600070.SH,综合,浙江富润
600071.SH,电子,凤凰光学
600072.SH,国防军工,中船科技
600073.SH,食品饮料,上海梅林
600074.SH,电子,*ST保千
600075.SH,化工,新疆天业
600076.SH,轻工制造,康欣新材
600077.SH,房地产,宋都股份
600078.SH,化工,澄星股份
600079.SH,医药生物,人福医药
600080.SH,医药生物,金花股份
600081.SH,汽车,东风科技
600082.SH,综合,海泰发展
600083.SH,综合,博信股份
600084.SH,食品饮料,中葡股份
600085.SH,医药生物,同仁堂
600086.SH,轻工制造,东方金钰
600088.SH,传媒,中视传媒
600089.SH,电气设备,特变电工
600090.SH,医药生物,同济堂
600091.SH,化工,ST明科
600093.SH,非银金融,易见股份
600094.SH,房地产,大名城
600095.SH,房地产,哈高科
600096.SH,化工,云天化
600097.SH,农林牧渔,开创国际
600098.SH,公用事业,广州发展
600099.SH,汽车,林海股份
600100.SH,计算机,同方股份
600101.SH,公用事业,明星电力
600103.SH,轻工制造,青山纸业
600104.SH,汽车,上汽集团
600105.SH,通信,永鼎股份
600106.SH,交通运输,重庆路桥
600107.SH,纺织服装,美尔雅
600108.SH,农林牧渔,亚盛集团
600109.SH,非银金融,国金证券
600110.SH,电子,诺德股份
600111.SH,有色金属,北方稀土
600112.SH,电气设备,天成控股
600113.SH,商业贸易,浙江东日
600114.SH,有色金属,东睦股份
600115.SH,交通运输,东方航空
600116.SH,公用事业,三峡水利
600117.SH,钢铁,西宁特钢
600118.SH,国防军工,中国卫星
600119.SH,交通运输,长江投资
600120.SH,商业贸易,浙江东方
600121.SH,采掘,郑州煤电
600122.SH,商业贸易,宏图高科
600123.SH,采掘,兰花科创
600125.SH,交通运输,铁龙物流
600126.SH,钢铁,杭钢股份
600127.SH,农林牧渔,金健米业
600128.SH,综合,弘业股份
600129.SH,医药生物,太极集团
600130.SH,通信,波导股份
600131.SH,公用事业,岷江水电
600132.SH,食品饮料,重庆啤酒
600133.SH,建筑装饰,东湖高新
600135.SH,轻工制造,乐凯胶片
600136.SH,传媒,当代明诚
600137.SH,纺织服装,浪莎股份
600138.SH,休闲服务,中青旅
600139.SH,综合,西部资源
600141.SH,化工,兴发集团
600143.SH,化工,金发科技
600145.SH,建筑材料,*ST新亿
600146.SH,纺织服装,商赢环球
600148.SH,汽车,长春一东
600149.SH,综合,ST坊展
600150.SH,国防军工,*ST船舶
600151.SH,电气设备,航天机电
600152.SH,电子,维科技术
600153.SH,交通运输,建发股份
600155.SH,非银金融,华创阳安
600156.SH,纺织服装,华升股份
600157.SH,采掘,永泰能源
600158.SH,传媒,中体产业
600159.SH,房地产,大龙地产
600160.SH,化工,巨化股份
600161.SH,医药生物,天坛生物
600162.SH,房地产,香江控股
600163.SH,公用事业,中闽能源
600165.SH,机械设备,新日恒力
600166.SH,汽车,福田汽车
600167.SH,公用事业,联美控股
600168.SH,公用事业,武汉控股
600169.SH,机械设备,太原重工
600170.SH,建筑装饰,上海建工
600171.SH,电子,上海贝岭
600172.SH,机械设备,黄河旋风
600173.SH,房地产,卧龙地产
600175.SH,综合,美都能源
600176.SH,化工,中国巨石
600177.SH,房地产,雅戈尔
600178.SH,汽车,东安动力
600179.SH,交通运输,安通控股
600180.SH,交通运输,瑞茂通
600182.SH,化工,S佳通
600183.SH,电子,生益科技
600184.SH,国防军工,光电股份
600185.SH,房地产,格力地产
600186.SH,食品饮料,莲花健康
600187.SH,公用事业,国中水务
600188.SH,采掘,兖州煤业
600189.SH,农林牧渔,吉林森工
600190.SH,交通运输,锦州港
600191.SH,农林牧渔,华资实业
600192.SH,电气设备,长城电工
600193.SH,建筑装饰,*ST创兴
600195.SH,农林牧渔,中牧股份
600196.SH,医药生物,复星医药
600197.SH,食品饮料,伊力特
600198.SH,通信,*ST大唐
600199.SH,食品饮料,金种子酒
600200.SH,综合,江苏吴中
600201.SH,农林牧渔,生物股份
600202.SH,电气设备,*ST哈空
600203.SH,电子,福日电子
600206.SH,有色金属,有研新材
600207.SH,电气设备,安彩高科
600208.SH,房地产,新湖中宝
600209.SH,建筑装饰,*ST罗顿
600210.SH,轻工制造,紫江企业
600211.SH,医药生物,西藏药业
600212.SH,综合,江泉实业
600213.SH,汽车,亚星客车
600215.SH,房地产,长春经开
600216.SH,医药生物,浙江医药
600217.SH,公用事业,中再资环
600218.SH,机械设备,全柴动力
600219.SH,有色金属,南山铝业
600220.SH,纺织服装,江苏阳光
600221.SH,交通运输,海航控股
600222.SH,医药生物,太龙药业
600223.SH,房地产,鲁商置业
600225.SH,房地产,天津松江
600226.SH,农林牧渔,瀚叶股份
600227.SH,医药生物,圣济堂
600228.SH,化工,ST昌九
600229.SH,传媒,城市传媒
600230.SH,化工,沧州大化
600231.SH,钢铁,凌钢股份
600232.SH,纺织服装,金鹰股份
600233.SH,交通运输,圆通速递
600234.SH,综合,ST山水
600235.SH,轻工制造,民丰特纸
600236.SH,公用事业,桂冠电力
600237.SH,电子,铜峰电子
600238.SH,食品饮料,*ST椰岛
600239.SH,房地产,云南城投
600240.SH,房地产,华业资本
600241.SH,商业贸易,时代万恒
600242.SH,传媒,中昌数据
600243.SH,机械设备,青海华鼎
600246.SH,房地产,万通地产
600247.SH,商业贸易,*ST成城
600248.SH,建筑装饰,延长化建
600249.SH,化工,两面针
600250.SH,商业贸易,南纺股份
600251.SH,农林牧渔,冠农股份
600252.SH,医药生物,中恒集团
600255.SH,有色金属,梦舟股份
600256.SH,化工,广汇能源
600257.SH,农林牧渔,大湖股份
600258.SH,休闲服务,首旅酒店
600259.SH,有色金属,广晟有色
600260.SH,通信,凯乐科技
600261.SH,电子,阳光照明
600262.SH,机械设备,北方股份
600265.SH,农林牧渔,ST景谷
600266.SH,房地产,北京城建
600267.SH,医药生物,海正药业
600268.SH,电气设备,国电南自
600269.SH,交通运输,赣粤高速
600270.SH,交通运输,外运发展
600271.SH,计算机,航天信息
600272.SH,医药生物,开开实业
600273.SH,化工,嘉化能源
600275.SH,农林牧渔,ST昌鱼
600276.SH,医药生物,恒瑞医药
600277.SH,化工,亿利洁能
600278.SH,商业贸易,东方创业
600279.SH,交通运输,重庆港九
600280.SH,商业贸易,中央商场
600281.SH,综合,太化股份
600282.SH,钢铁,南钢股份
600283.SH,公用事业,钱江水利
600284.SH,建筑装饰,浦东建设
600285.SH,医药生物,羚锐制药
600287.SH,商业贸易,江苏舜天
600288.SH,电子,大恒科技
600289.SH,通信,*ST信通
600290.SH,电气设备,华仪电气
600291.SH,非银金融,西水股份
600292.SH,公用事业,远达环保
600293.SH,通信,三峡新材
600295.SH,采掘,鄂尔多斯
600297.SH,汽车,广汇汽车
600298.SH,农林牧渔,安琪酵母
600299.SH,化工,安迪苏
600300.SH,食品饮料,维维股份
600301.SH,化工,ST南化
600302.SH,机械设备,标准股份
600303.SH,汽车,曙光股份
600305.SH,食品饮料,恒顺醋业
600306.SH,商业贸易,商业城
600307.SH,钢铁,酒钢宏兴
600308.SH,轻工制造,华泰股份
600309.SH,化工,万华化学
600310.SH,公用事业,桂东电力
600311.SH,有色金属,荣华实业
600312.SH,电气设备,平高电气
600313.SH,农林牧渔,农发种业
600315.SH,化工,上海家化
600316.SH,国防军工,洪都航空
600317.SH,交通运输,营口港
600318.SH,非银金融,新力金融
600319.SH,化工,亚星化学
600320.SH,机械设备,振华重工
600321.SH,建筑材料,*ST正源
600322.SH,房地产,天房发展
600323.SH,公用事业,瀚蓝环境
600325.SH,房地产,华发股份
600326.SH,建筑装饰,西藏天路
600327.SH,汽车,大东方
600328.SH,化工,兰太实业
600329.SH,医药生物,中新药业
600330.SH,有色金属,天通股份
600331.SH,有色金属,宏达股份
600332.SH,医药生物,白云山
600333.SH,公用事业,长春燃气
600335.SH,汽车,国机汽车
600336.SH,家用电器,澳柯玛
600337.SH,轻工制造,美克家居
600338.SH,有色金属,西藏珠峰
600339.SH,采掘,中油工程
600340.SH,房地产,华夏幸福
600343.SH,国防军工,航天动力
600345.SH,通信,长江通信
600346.SH,化工,恒力股份
600348.SH,采掘,阳泉煤业
600350.SH,交通运输,山东高速
600351.SH,医药生物,亚宝药业
600352.SH,化工,浙江龙盛
600353.SH,电子,旭光股份
600354.SH,农林牧渔,敦煌种业
600355.SH,通信,精伦电子
600356.SH,轻工制造,恒丰纸业
600358.SH,休闲服务,国旅联合
600359.SH,农林牧渔,新农开发
600360.SH,电子,华微电子
600361.SH,商业贸易,华联综超
600362.SH,有色金属,江西铜业
600363.SH,电子,联创光电
600365.SH,食品饮料,通葡股份
600366.SH,有色金属,宁波韵升
600367.SH,化工,红星发展
600368.SH,交通运输,五洲交通
600369.SH,非银金融,西南证券
600370.SH,纺织服装,三房巷
600371.SH,农林牧渔,万向德农
600372.SH,国防军工,中航电子
600373.SH,传媒,中文传媒
600375.SH,机械设备,华菱星马
600376.SH,房地产,首开股份
600377.SH,交通运输,宁沪高速
600378.SH,化工,天科股份
600379.SH,电气设备,宝光股份
600380.SH,医药生物,健康元
600381.SH,食品饮料,青海春天
600382.SH,综合,广东明珠
600383.SH,房地产,金地集团
600385.SH,有色金属,山东金泰
600386.SH,传媒,北巴传媒
600387.SH,化工,海越能源
600388.SH,机械设备,龙净环保
600389.SH,化工,江山股份
600390.SH,非银金融,五矿资本
600391.SH,国防军工,航发科技
600392.SH,有色金属,盛和资源
600393.SH,房地产,粤泰股份
600395.SH,采掘,盘江股份
600396.SH,公用事业,金山股份
600397.SH,采掘,*ST安煤
600398.SH,纺织服装,海澜之家
600399.SH,钢铁,*ST抚钢
600400.SH,纺织服装,红豆股份
600401.SH,电气设备,*ST海润
600403.SH,采掘,大有能源
600405.SH,电气设备,动力源
600406.SH,电气设备,国电南瑞
600408.SH,采掘,*ST安泰
600409.SH,化工,三友化工
600410.SH,计算机,华胜天成
600415.SH,商业贸易,小商品城
600416.SH,电气设备,湘电股份
600418.SH,汽车,江淮汽车
600419.SH,食品饮料,天润乳业
600420.SH,医药生物,现代制药
600421.SH,机械设备,ST仰帆
600422.SH,医药生物,昆药集团
600423.SH,化工,*ST柳化
600425.SH,建筑材料,青松建化
600426.SH,化工,华鲁恒升
600428.SH,交通运输,中远海特
600429.SH,食品饮料,三元股份
600433.SH,轻工制造,冠豪高新
600435.SH,国防军工,北方导航
600436.SH,医药生物,片仔癀
600438.SH,农林牧渔,通威股份
600439.SH,轻工制造,瑞贝卡
600444.SH,机械设备,国机通用
600446.SH,计算机,金证股份
600448.SH,纺织服装,华纺股份
600449.SH,建筑材料,宁夏建材
600452.SH,公用事业,涪陵电力
600455.SH,传媒,博通股份
600456.SH,有色金属,宝钛股份
600458.SH,化工,时代新材
600459.SH,有色金属,贵研铂业
600460.SH,电子,士兰微
600461.SH,公用事业,洪城水业
600462.SH,通信,九有股份
600463.SH,房地产,空港股份
600466.SH,房地产,蓝光发展
600467.SH,农林牧渔,好当家
600468.SH,电气设备,百利电气
600469.SH,化工,风神股份
600470.SH,化工,六国化工
600475.SH,电气设备,华光股份
600476.SH,计算机,湘邮科技
600477.SH,建筑装饰,杭萧钢构
600478.SH,电子,科力远
600479.SH,医药生物,千金药业
600480.SH,汽车,凌云股份
600481.SH,机械设备,双良节能
600482.SH,电气设备,中国动力
600483.SH,公用事业,福能股份
600485.SH,通信,信威集团
600486.SH,化工,扬农化工
600487.SH,通信,亨通光电
600488.SH,医药生物,天药股份
600489.SH,有色金属,中金黄金
600490.SH,有色金属,鹏欣资源
600491.SH,建筑装饰,龙元建设
600493.SH,纺织服装,凤竹纺织
600495.SH,机械设备,晋西车轴
600496.SH,建筑装饰,精工钢构
600497.SH,有色金属,驰宏锌锗
600498.SH,通信,烽火通信
600499.SH,机械设备,科达洁能
600500.SH,化工,中化国际
600501.SH,机械设备,航天晨光
600502.SH,建筑装饰,安徽水利
600503.SH,房地产,华丽家族
600505.SH,公用事业,西昌电力
600506.SH,农林牧渔,香梨股份
600507.SH,钢铁,方大特钢
600508.SH,采掘,上海能源
600509.SH,公用事业,天富能源
600510.SH,纺织服装,黑牡丹
600511.SH,医药生物,国药股份
600512.SH,建筑装饰,腾达建设
600513.SH,医药生物,联环药业
600515.SH,房地产,海航基础
600516.SH,有色金属,方大炭素
600517.SH,电气设备,置信电气
600518.SH,医药生物,康美药业
600519.SH,食品饮料,贵州茅台
600520.SH,机械设备,文一科技
600521.SH,医药生物,华海药业
600522.SH,通信,中天科技
600523.SH,汽车,贵航股份
600525.SH,电气设备,长园集团
600526.SH,机械设备,菲达环保
600527.SH,化工,江南高纤
600528.SH,建筑装饰,中铁工业
600529.SH,医药生物,山东药玻
600530.SH,医药生物,交大昂立
600531.SH,有色金属,豫光金铅
600532.SH,采掘,宏达矿业
600533.SH,房地产,栖霞建设
600535.SH,医药生物,天士力
600536.SH,计算机,中国软件
600537.SH,电气设备,亿晶光电
600538.SH,医药生物,国发股份
600539.SH,轻工制造,*ST狮头
600540.SH,农林牧渔,新赛股份
600543.SH,食品饮料,莫高股份
600545.SH,机械设备,卓郎智能
600546.SH,采掘,山煤国际
600547.SH,有色金属,山东黄金
600548.SH,交通运输,深高速
600549.SH,有色金属,厦门钨业
600550.SH,电气设备,保变电气
600551.SH,传媒,时代出版
600552.SH,电子,凯盛科技
600555.SH,休闲服务,海航创新
600556.SH,综合,ST慧球
600557.SH,医药生物,康缘药业
600558.SH,机械设备,大西洋
600559.SH,食品饮料,老白干酒
600560.SH,机械设备,金自天正
600561.SH,交通运输,江西长运
600562.SH,国防军工,国睿科技
600563.SH,电子,法拉电子
600565.SH,房地产,迪马股份
600566.SH,医药生物,济川药业
600567.SH,轻工制造,山鹰纸业
600568.SH,房地产,中珠医疗
600569.SH,钢铁,安阳钢铁
600570.SH,计算机,恒生电子
600571.SH,计算机,信雅达
600572.SH,医药生物,康恩贝
600573.SH,食品饮料,惠泉啤酒
600575.SH,交通运输,皖江物流
600576.SH,传媒,祥源文化
600577.SH,机械设备,精达股份
600578.SH,公用事业,京能电力
600579.SH,机械设备,天华院
600580.SH,电气设备,卧龙电气
600581.SH,钢铁,八一钢铁
600582.SH,机械设备,天地科技
600583.SH,采掘,海油工程
600584.SH,电子,长电科技
600585.SH,建筑材料,海螺水泥
600586.SH,建筑材料,金晶科技
600587.SH,医药生物,新华医疗
600588.SH,计算机,用友网络
600589.SH,化工,广东榕泰
600590.SH,电气设备,泰豪科技
600592.SH,机械设备,龙溪股份
600593.SH,休闲服务,大连圣亚
600594.SH,医药生物,益佰制药
600595.SH,有色金属,中孚实业
600596.SH,化工,新安股份
600597.SH,食品饮料,光明乳业
600598.SH,农林牧渔,北大荒
600599.SH,非银金融,熊猫金控
600600.SH,食品饮料,青岛啤酒
600601.SH,计算机,方正科技
600602.SH,计算机,云赛智联
600603.SH,综合,广汇物流
600604.SH,房地产,市北高新
600605.SH,商业贸易,汇通能源
600606.SH,房地产,绿地控股
600608.SH,商业贸易,ST沪科
600609.SH,汽车,金杯汽车
600610.SH,建筑装饰,*ST毅达
600611.SH,交通运输,大众交通
600612.SH,轻工制造,老凤祥
600613.SH,医药生物,神奇制药
600614.SH,有色金属,鹏起科技
600615.SH,有色金属,丰华股份
600616.SH,食品饮料,金枫酒业
600617.SH,公用事业,国新能源
600618.SH,化工,氯碱化工
600619.SH,家用电器,海立股份
600620.SH,综合,天宸股份
600621.SH,房地产,华鑫股份
600622.SH,房地产,光大嘉宝
600623.SH,化工,华谊集团
600624.SH,综合,复旦复华
600626.SH,商业贸易,申达股份
600628.SH,商业贸易,新世界
600629.SH,建筑装饰,华建集团
600630.SH,纺织服装,龙头股份
600633.SH,传媒,浙数文化
600634.SH,传媒,*ST富控
600635.SH,公用事业,大众公用
600636.SH,化工,三爱富
600637.SH,传媒,东方明珠
600638.SH,房地产,新黄浦
600639.SH,房地产,浦东金桥
600640.SH,传媒,号百控股
600641.SH,房地产,万业企业
600642.SH,公用事业,申能股份
600643.SH,非银金融,爱建集团
600644.SH,公用事业,乐山电力
600645.SH,医药生物,中源协和
600647.SH,房地产,同达创业
600648.SH,房地产,外高桥
600649.SH,房地产,城投控股
600650.SH,交通运输,锦江投资
600651.SH,电子,飞乐音响
600652.SH,传媒,游久游戏
600653.SH,汽车,申华控股
600654.SH,计算机,ST中安
600655.SH,商业贸易,豫园股份
600657.SH,房地产,信达地产
600658.SH,房地产,电子城
600660.SH,汽车,福耀玻璃
600661.SH,传媒,新南洋
600662.SH,交通运输,强生控股
600663.SH,房地产,陆家嘴
600664.SH,医药生物,哈药股份
600665.SH,房地产,天地源
600666.SH,电子,奥瑞德
600667.SH,电子,太极实业
600668.SH,建筑材料,尖峰集团
600671.SH,医药生物,天目药业
600673.SH,有色金属,东阳光科
600674.SH,公用事业,川投能源
600675.SH,房地产,中华企业
600676.SH,汽车,交运股份
600677.SH,国防军工,航天通信
600678.SH,建筑材料,四川金顶
600679.SH,汽车,上海凤凰
600680.SH,通信,*ST上普
600681.SH,公用事业,百川能源
600682.SH,商业贸易,南京新百
600683.SH,房地产,京投发展
600684.SH,房地产,珠江实业
600685.SH,国防军工,中船防务
600686.SH,汽车,金龙汽车
600687.SH,有色金属,刚泰控股
600688.SH,化工,上海石化
600689.SH,纺织服装,上海三毛
600690.SH,家用电器,青岛海尔
600691.SH,化工,阳煤化工
600692.SH,房地产,亚通股份
600693.SH,商业贸易,东百集团
600694.SH,商业贸易,大商股份
600695.SH,非银金融,绿庭投资
600696.SH,房地产,ST岩石
600697.SH,商业贸易,欧亚集团
600698.SH,汽车,湖南天雁
600699.SH,汽车,均胜电子
600701.SH,计算机,*ST工新
600702.SH,食品饮料,舍得酒业
600703.SH,电子,三安光电
600704.SH,综合,物产中大
600705.SH,非银金融,中航资本
600706.SH,休闲服务,曲江文旅
600707.SH,电子,彩虹股份
600708.SH,房地产,光明地产
600710.SH,商业贸易,苏美达
600711.SH,有色金属,盛屯矿业
600712.SH,商业贸易,南宁百货
600713.SH,医药生物,南京医药
600714.SH,化工,金瑞矿业
600715.SH,传媒,文投控股
600716.SH,房地产,凤凰股份
600717.SH,交通运输,天津港
600718.SH,计算机,东软集团
600719.SH,公用事业,大连热电
600720.SH,建筑材料,祁连山
600721.SH,医药生物,百花村
600722.SH,化工,金牛化工
600723.SH,商业贸易,首商股份
600724.SH,房地产,宁波富达
600725.SH,采掘,ST云维
600726.SH,公用事业,华电能源
600727.SH,化工,鲁北化工
600728.SH,计算机,佳都科技
600729.SH,商业贸易,重庆百货
600730.SH,综合,中国高科
600731.SH,化工,湖南海利
600732.SH,房地产,ST新梅
600733.SH,汽车,SST前锋
600734.SH,通信,实达集团
600735.SH,商业贸易,新华锦
600736.SH,房地产,苏州高新
600737.SH,农林牧渔,中粮糖业
600738.SH,商业贸易,兰州民百
600739.SH,商业贸易,辽宁成大
600740.SH,采掘,山西焦化
600741.SH,汽车,华域汽车
600742.SH,汽车,一汽富维
600743.SH,房地产,华远地产
600744.SH,公用事业,华银电力
600745.SH,电子,闻泰科技
600746.SH,化工,江苏索普
600747.SH,综合,ST大控
600748.SH,房地产,上实发展
600749.SH,休闲服务,*ST藏旅
600750.SH,医药生物,江中药业
600751.SH,电子,海航科技
600753.SH,商业贸易,东方银星
600754.SH,休闲服务,锦江股份
600755.SH,商业贸易,厦门国贸
600756.SH,计算机,浪潮软件
600757.SH,传媒,长江传媒
600758.SH,采掘,红阳能源
600759.SH,采掘,洲际油气
600760.SH,国防军工,中航沈飞
600761.SH,机械设备,安徽合力
600763.SH,医药生物,通策医疗
600764.SH,国防军工,中国海防
600765.SH,机械设备,中航重机
600766.SH,有色金属,园城黄金
600767.SH,医药生物,ST运盛
600768.SH,有色金属,宁波富邦
600769.SH,建筑装饰,祥龙电业
600770.SH,综合,综艺股份
600771.SH,医药生物,广誉远
600773.SH,房地产,西藏城投
600774.SH,商业贸易,汉商集团
600775.SH,通信,南京熊猫
600776.SH,通信,东方通信
600777.SH,采掘,新潮能源
600778.SH,商业贸易,*ST友好
600779.SH,食品饮料,水井坊
600780.SH,公用事业,通宝能源
600781.SH,医药生物,辅仁药业
600782.SH,钢铁,新钢股份
600783.SH,非银金融,鲁信创投
600784.SH,综合,鲁银投资
600785.SH,商业贸易,新华百货
600787.SH,交通运输,中储股份
600789.SH,医药生物,鲁抗医药
600790.SH,商业贸易,轻纺城
600791.SH,房地产,京能置业
600792.SH,采掘,云煤能源
600793.SH,轻工制造,宜宾纸业
600794.SH,交通运输,保税科技
600795.SH,公用事业,国电电力
600796.SH,医药生物,钱江生化
600797.SH,计算机,浙大网新
600798.SH,交通运输,宁波海运
600800.SH,计算机,天津磁卡
600801.SH,建筑材料,华新水泥
600802.SH,建筑材料,福建水泥
600803.SH,公用事业,新奥股份
600804.SH,通信,鹏博士
600805.SH,综合,悦达投资
600807.SH,房地产,*ST天业
600808.SH,钢铁,马钢股份
600809.SH,食品饮料,山西汾酒
600810.SH,化工,神马股份
600811.SH,综合,东方集团
600812.SH,医药生物,华北制药
600814.SH,商业贸易,杭州解百
600815.SH,机械设备,厦工股份
600816.SH,非银金融,安信信托
600817.SH,综合,ST宏盛
600818.SH,综合,中路股份
600819.SH,建筑材料,耀皮玻璃
600820.SH,建筑装饰,隧道股份
600821.SH,商业贸易,津劝业
600822.SH,商业贸易,上海物贸
600823.SH,房地产,世茂股份
600824.SH,商业贸易,益民集团
600825.SH,传媒,新华传媒
600826.SH,商业贸易,兰生股份
600827.SH,商业贸易,百联股份
600828.SH,商业贸易,茂业商业
600829.SH,医药生物,人民同泰
600830.SH,非银金融,香溢融通
600831.SH,传媒,广电网络
600833.SH,医药生物,第一医药
600834.SH,交通运输,申通地铁
600835.SH,机械设备,上海机电
600836.SH,轻工制造,界龙实业
600837.SH,非银金融,海通证券
600838.SH,商业贸易,上海九百
600839.SH,家用电器,四川长虹
600841.SH,机械设备,上柴股份
600843.SH,机械设备,上工申贝
600844.SH,化工,丹化科技
600845.SH,计算机,宝信软件
600846.SH,建筑装饰,同济科技
600847.SH,电气设备,万里股份
600848.SH,房地产,上海临港
600850.SH,计算机,华东电脑
600851.SH,医药生物,海欣股份
600853.SH,建筑装饰,龙建股份
600854.SH,家用电器,春兰股份
600855.SH,计算机,航天长峰
600856.SH,公用事业,中天能源
600857.SH,商业贸易,宁波中百
600858.SH,商业贸易,银座股份
600859.SH,商业贸易,王府井
600860.SH,机械设备,京城股份
600861.SH,商业贸易,北京城乡
600862.SH,国防军工,中航高科
600863.SH,公用事业,内蒙华电
600864.SH,非银金融,哈投股份
600865.SH,商业贸易,百大集团
600866.SH,食品饮料,星湖科技
600867.SH,医药生物,通化东宝
600868.SH,公用事业,梅雁吉祥
600869.SH,电气设备,智慧能源
600870.SH,家用电器,*ST厦华
600871.SH,采掘,*ST油服
600872.SH,食品饮料,中炬高新
600873.SH,农林牧渔,梅花生物
600874.SH,公用事业,创业环保
600875.SH,电气设备,东方电气
600876.SH,建筑材料,洛阳玻璃
600877.SH,汽车,ST嘉陵
600879.SH,国防军工,航天电子
600880.SH,传媒,博瑞传播
600881.SH,建筑材料,亚泰集团
600882.SH,食品饮料,广泽股份
600883.SH,建筑材料,博闻科技
600884.SH,电子,杉杉股份
600885.SH,电气设备,宏发股份
600886.SH,公用事业,国投电力
600887.SH,食品饮料,伊利股份
600888.SH,有色金属,新疆众和
600889.SH,化工,南京化纤
600890.SH,房地产,中房股份
600891.SH,轻工制造,秋林集团
600892.SH,传媒,大晟文化
600893.SH,国防军工,航发动力
600894.SH,机械设备,广日股份
600895.SH,房地产,张江高科
600896.SH,医药生物,*ST海投
600897.SH,交通运输,厦门空港
600898.SH,商业贸易,国美通讯
600900.SH,公用事业,长江电力
600901.SH,非银金融,江苏租赁
600903.SH,公用事业,贵州燃气
600908.SH,银行,无锡银行
600909.SH,非银金融,华安证券
600917.SH,公用事业,重庆燃气
600919.SH,银行,江苏银行
600926.SH,银行,杭州银行
600929.SH,化工,湖南盐业
600933.SH,汽车,爱柯迪
600936.SH,传媒,广西广电
600939.SH,建筑装饰,重庆建工
600958.SH,非银金融,东方证券
600959.SH,传媒,江苏有线
600960.SH,汽车,渤海汽车
600961.SH,有色金属,株冶集团
600962.SH,农林牧渔,国投中鲁
600963.SH,轻工制造,岳阳林纸
600965.SH,农林牧渔,福成股份
600966.SH,轻工制造,博汇纸业
600967.SH,国防军工,内蒙一机
600969.SH,公用事业,郴电国际
600970.SH,建筑装饰,中材国际
600971.SH,采掘,恒源煤电
600973.SH,电气设备,宝胜股份
600975.SH,农林牧渔,新五丰
600976.SH,医药生物,健民集团
600977.SH,传媒,中国电影
600978.SH,轻工制造,宜华生活
600979.SH,公用事业,广安爱众
600980.SH,有色金属,北矿科技
600981.SH,商业贸易,汇鸿集团
600982.SH,公用事业,宁波热电
600983.SH,家用电器,惠而浦
600984.SH,机械设备,建设机械
600985.SH,化工,雷鸣科化
600986.SH,传媒,科达股份
600987.SH,纺织服装,航民股份
600988.SH,有色金属,赤峰黄金
600990.SH,国防军工,四创电子
600992.SH,机械设备,贵绳股份
600993.SH,医药生物,马应龙
600995.SH,公用事业,文山电力
600996.SH,传媒,贵广网络
600997.SH,采掘,开滦股份
600998.SH,医药生物,九州通
600999.SH,非银金融,招商证券
601000.SH,交通运输,唐山港
601001.SH,采掘,大同煤业
601002.SH,机械设备,晋亿实业
601003.SH,钢铁,柳钢股份
601005.SH,钢铁,重庆钢铁
601006.SH,交通运输,大秦铁路
601007.SH,休闲服务,金陵饭店
601008.SH,交通运输,连云港
601009.SH,银行,南京银行
601010.SH,商业贸易,文峰股份
601011.SH,采掘,宝泰隆
601012.SH,电气设备,隆基股份
601015.SH,采掘,陕西黑猫
601016.SH,公用事业,节能风电
601018.SH,交通运输,宁波港
601019.SH,传媒,山东出版
601020.SH,有色金属,华钰矿业
601021.SH,交通运输,春秋航空
601028.SH,机械设备,玉龙股份
601038.SH,机械设备,一拖股份
601058.SH,化工,赛轮金宇
601066.SH,非银金融,中信建投
601069.SH,有色金属,西部黄金
601086.SH,商业贸易,国芳集团
601088.SH,采掘,中国神华
601098.SH,传媒,中南传媒
601099.SH,非银金融,太平洋
601100.SH,机械设备,恒立液压
601101.SH,采掘,昊华能源
601106.SH,机械设备,中国一重
601107.SH,交通运输,四川成渝
601108.SH,非银金融,财通证券
601111.SH,交通运输,中国国航
601113.SH,化工,华鼎股份
601116.SH,商业贸易,三江购物
601117.SH,建筑装饰,中国化学
601118.SH,农林牧渔,海南橡胶
601126.SH,电气设备,四方股份
601127.SH,汽车,小康股份
601128.SH,银行,常熟银行
601137.SH,有色金属,博威合金
601138.SH,电子,工业富联
601139.SH,公用事业,深圳燃气
601155.SH,房地产,新城控股
601158.SH,公用事业,重庆水务
601163.SH,化工,三角轮胎
601166.SH,银行,兴业银行
601168.SH,有色金属,西部矿业
601169.SH,银行,北京银行
601177.SH,机械设备,杭齿前进
601179.SH,电气设备,中国西电
601186.SH,建筑装饰,中国铁建
601188.SH,交通运输,龙江交通
601198.SH,非银金融,东兴证券
601199.SH,公用事业,江南水务
601200.SH,公用事业,上海环境
601208.SH,化工,东材科技
601211.SH,非银金融,国泰君安
601212.SH,有色金属,白银有色
601216.SH,化工,君正集团
601218.SH,电气设备,吉鑫科技
601222.SH,电气设备,林洋能源
601225.SH,采掘,陕西煤业
601226.SH,建筑装饰,华电重工
601228.SH,交通运输,广州港
601229.SH,银行,上海银行
601231.SH,电子,环旭电子
601233.SH,化工,桐昆股份
601238.SH,汽车,广汽集团
601258.SH,汽车,庞大集团
601288.SH,银行,农业银行
601311.SH,汽车,骆驼股份
601318.SH,非银金融,中国平安
601326.SH,交通运输,秦港股份
601328.SH,银行,交通银行
601330.SH,公用事业,绿色动力
601333.SH,交通运输,广深铁路
601336.SH,非银金融,新华保险
601339.SH,纺织服装,百隆东方
601360.SH,计算机,三六零
601366.SH,商业贸易,利群股份
601368.SH,公用事业,绿城水务
601369.SH,机械设备,陕鼓动力
601375.SH,非银金融,中原证券
601377.SH,非银金融,兴业证券
601388.SH,有色金属,怡球资源
601390.SH,建筑装饰,中国中铁
601398.SH,银行,工商银行
601500.SH,化工,通用股份
601515.SH,轻工制造,东风股份
601518.SH,交通运输,吉林高速
601519.SH,计算机,大智慧
601555.SH,非银金融,东吴证券
601558.SH,电气设备,ST锐电
601566.SH,纺织服装,九牧王
601567.SH,电气设备,三星医疗
601579.SH,食品饮料,会稽山
601588.SH,房地产,北辰实业
601595.SH,传媒,上海电影
601599.SH,纺织服装,鹿港文化
601600.SH,有色金属,中国铝业
601601.SH,非银金融,中国太保
601606.SH,国防军工,长城军工
601607.SH,医药生物,上海医药
601608.SH,机械设备,中信重工
601611.SH,建筑装饰,中国核建
601616.SH,电气设备,广电电气
601618.SH,建筑装饰,中国中冶
601619.SH,公用事业,嘉泽新能
601628.SH,非银金融,中国人寿
601633.SH,汽车,长城汽车
601636.SH,建筑材料,旗滨集团
601666.SH,采掘,平煤股份
601668.SH,建筑装饰,中国建筑
601669.SH,建筑装饰,中国电建
601677.SH,有色金属,明泰铝业
601678.SH,化工,滨化股份
601688.SH,非银金融,华泰证券
601689.SH,汽车,拓普集团
601699.SH,采掘,潞安环能
601700.SH,电气设备,风范股份
601717.SH,机械设备,郑煤机
601718.SH,纺织服装,际华集团
601727.SH,电气设备,上海电气
601766.SH,机械设备,中国中车
601777.SH,汽车,力帆股份
601788.SH,非银金融,光大证券
601789.SH,建筑装饰,宁波建工
601798.SH,机械设备,*ST蓝科
601799.SH,汽车,星宇股份
601800.SH,建筑装饰,中国交建
601801.SH,传媒,皖新传媒
601808.SH,采掘,中海油服
601811.SH,传媒,新华文轩
601818.SH,银行,光大银行
601828.SH,商业贸易,美凯龙
601838.SH,银行,成都银行
601857.SH,采掘,中国石油
601858.SH,传媒,中国科传
601866.SH,交通运输,中远海发
601869.SH,通信,长飞光纤
601872.SH,交通运输,招商轮船
601877.SH,电气设备,正泰电器
601878.SH,非银金融,浙商证券
601880.SH,交通运输,大连港
601881.SH,非银金融,中国银河
601882.SH,机械设备,海天精工
601886.SH,建筑装饰,江河集团
601888.SH,休闲服务,中国国旅
601890.SH,国防军工,亚星锚链
601898.SH,采掘,中煤能源
601899.SH,有色金属,紫金矿业
601900.SH,传媒,南方传媒
601901.SH,非银金融,方正证券
601908.SH,电气设备,京运通
601918.SH,采掘,新集能源
601919.SH,交通运输,中远海控
601928.SH,传媒,凤凰传媒
601929.SH,传媒,吉视传媒
601933.SH,商业贸易,永辉超市
601939.SH,银行,建设银行
601949.SH,传媒,中国出版
601952.SH,农林牧渔,苏垦农发
601958.SH,有色金属,金钼股份
601965.SH,汽车,中国汽研
601966.SH,化工,玲珑轮胎
601968.SH,轻工制造,宝钢包装
601969.SH,采掘,海南矿业
601985.SH,公用事业,中国核电
601988.SH,银行,中国银行
601989.SH,国防军工,中国重工
601990.SH,非银金融,南京证券
601991.SH,公用事业,大唐发电
601992.SH,综合,金隅集团
601996.SH,轻工制造,丰林集团
601997.SH,银行,贵阳银行
601998.SH,银行,中信银行
601999.SH,传媒,出版传媒
603000.SH,传媒,人民网
603001.SH,纺织服装,奥康国际
603002.SH,化工,宏昌电子
603003.SH,化工,龙宇燃油
603005.SH,电子,晶方科技
603006.SH,汽车,联明股份
603007.SH,建筑装饰,花王股份
603008.SH,轻工制造,喜临门
603009.SH,汽车,北特科技
603010.SH,化工,万盛股份
603011.SH,机械设备,合锻智能
603012.SH,机械设备,创力集团
603013.SH,汽车,亚普股份
603015.SH,电气设备,弘讯科技
603016.SH,电气设备,新宏泰
603017.SH,建筑装饰,中衡设计
603018.SH,建筑装饰,中设集团
603019.SH,计算机,中科曙光
603020.SH,食品饮料,爱普股份
603021.SH,轻工制造,山东华鹏
603022.SH,轻工制造,新通联
603023.SH,汽车,威帝股份
603025.SH,电气设备,大豪科技
603026.SH,化工,石大胜华
603027.SH,食品饮料,千禾味业
603028.SH,机械设备,赛福天
603029.SH,机械设备,天鹅股份
603030.SH,建筑装饰,全筑股份
603031.SH,食品饮料,安德利
603032.SH,交通运输,德新交运
603033.SH,化工,三维股份
603035.SH,汽车,常熟汽饰
603036.SH,机械设备,如通股份
603037.SH,汽车,凯众股份
603038.SH,建筑材料,华立股份
603039.SH,计算机,泛微网络
603040.SH,汽车,新坐标
603041.SH,化工,美思德
603042.SH,通信,华脉科技
603043.SH,食品饮料,广州酒家
603045.SH,有色金属,福达合金
603050.SH,电气设备,科林电气
603055.SH,化工,台华新材
603056.SH,交通运输,德邦股份
603058.SH,轻工制造,永吉股份
603059.SH,轻工制造,倍加洁
603060.SH,综合,国检集团
603063.SH,电气设备,禾望电气
603066.SH,交通运输,音飞储存
603067.SH,化工,振华股份
603069.SH,交通运输,海汽集团
603076.SH,机械设备,乐惠国际
603077.SH,化工,和邦生物
603078.SH,化工,江化微
603079.SH,医药生物,圣达生物
603080.SH,公用事业,新疆火炬
603081.SH,建筑装饰,大丰实业
603083.SH,通信,剑桥科技
603085.SH,汽车,天成自控
603086.SH,化工,先达股份
603088.SH,机械设备,宁波精达
603089.SH,汽车,正裕工业
603090.SH,机械设备,宏盛股份
603096.SH,传媒,新经典
603098.SH,建筑装饰,森特股份
603099.SH,休闲服务,长白山
603100.SH,电气设备,川仪股份
603101.SH,商业贸易,汇嘉时代
603103.SH,传媒,横店影视
603105.SH,电气设备,芯能科技
603106.SH,计算机,恒银金融
603108.SH,医药生物,润达医疗
603110.SH,化工,东方材料
603111.SH,机械设备,康尼机电
603113.SH,采掘,金能科技
603116.SH,纺织服装,红蜻蜓
603117.SH,交通运输,万林股份
603118.SH,通信,共进股份
603123.SH,商业贸易,翠微股份
603126.SH,公用事业,中材节能
603127.SH,医药生物,昭衍新药
603128.SH,交通运输,华贸物流
603129.SH,汽车,春风动力
603131.SH,机械设备,上海沪工
603133.SH,化工,碳元科技
603136.SH,休闲服务,天目湖
603138.SH,计算机,海量数据
603139.SH,医药生物,康惠制药
603156.SH,食品饮料,养元饮品
603157.SH,纺织服装,拉夏贝尔
603158.SH,汽车,腾龙股份
603159.SH,机械设备,上海亚虹
603160.SH,电子,汇顶科技
603161.SH,汽车,科华控股
603165.SH,轻工制造,荣晟环保
603166.SH,汽车,福达股份
603167.SH,交通运输,渤海轮渡
603168.SH,医药生物,莎普爱思
603169.SH,机械设备,兰石重装
603177.SH,公用事业,德创环保
603178.SH,汽车,圣龙股份
603179.SH,汽车,新泉股份
603180.SH,轻工制造,金牌厨柜
603181.SH,化工,皇马科技
603183.SH,综合,建研院
603186.SH,电子,华正新材
603188.SH,化工,ST亚邦
603189.SH,计算机,网达软件
603196.SH,纺织服装,日播时尚
603197.SH,汽车,保隆科技
603198.SH,食品饮料,迎驾贡酒
603199.SH,休闲服务,九华旅游
603200.SH,公用事业,上海洗霸
603203.SH,机械设备,快克股份
603208.SH,轻工制造,江山欧派
603214.SH,商业贸易,爱婴室
603218.SH,电气设备,日月股份
603222.SH,医药生物,济民制药
603223.SH,交通运输,恒通股份
603225.SH,化工,新凤鸣
603226.SH,轻工制造,菲林格尔
603227.SH,化工,雪峰科技
603228.SH,电子,景旺电子
603229.SH,医药生物,奥翔药业
603232.SH,计算机,格尔软件
603233.SH,医药生物,大参林
603238.SH,纺织服装,诺邦股份
603239.SH,汽车,浙江仙通
603258.SH,传媒,电魂网络
603259.SH,医药生物,药明康德
603260.SH,有色金属,合盛硅业
603266.SH,化工,天龙股份
603268.SH,轻工制造,松发股份
603269.SH,机械设备,海鸥股份
603277.SH,机械设备,银都股份
603278.SH,机械设备,大业股份
603283.SH,机械设备,赛腾股份
603286.SH,汽车,日盈电子
603288.SH,食品饮料,海天味业
603289.SH,机械设备,泰瑞机器
603298.SH,机械设备,杭叉集团
603299.SH,化工,井神股份
603300.SH,非银金融,华铁科技
603301.SH,医药生物,振德医疗
603303.SH,电子,得邦照明
603305.SH,汽车,旭升股份
603306.SH,汽车,华懋科技
603308.SH,机械设备,应流股份
603309.SH,医药生物,维力医疗
603311.SH,机械设备,金海环境
603313.SH,轻工制造,梦百合
603315.SH,机械设备,福鞍股份
603316.SH,建筑装饰,诚邦股份
603318.SH,机械设备,派思股份
603319.SH,汽车,湘油泵
603320.SH,电气设备,迪贝电气
603321.SH,机械设备,梅轮电梯
603322.SH,通信,超讯通信
603323.SH,银行,吴江银行
603326.SH,轻工制造,我乐家居
603328.SH,电子,依顿电子
603329.SH,交通运输,上海雅仕
603330.SH,化工,上海天洋
603331.SH,机械设备,百达精工
603333.SH,电气设备,明星电缆
603335.SH,汽车,迪生力
603336.SH,农林牧渔,宏辉果蔬
603337.SH,机械设备,杰克股份
603338.SH,机械设备,浙江鼎力
603339.SH,机械设备,四方科技
603345.SH,食品饮料,安井食品
603348.SH,汽车,文灿股份
603355.SH,家用电器,莱克电气
603356.SH,机械设备,华菱精工
603357.SH,建筑装饰,设计总院
603358.SH,汽车,华达科技
603359.SH,建筑装饰,东珠生态
603360.SH,化工,百傲化学
603363.SH,农林牧渔,傲农生物
603365.SH,纺织服装,水星家纺
603366.SH,家用电器,日出东方
603367.SH,医药生物,辰欣药业
603368.SH,医药生物,柳药股份
603369.SH,食品饮料,今世缘
603377.SH,汽车,东方时尚
603378.SH,化工,亚士创能
603380.SH,电子,易德龙
603383.SH,计算机,顶点软件
603385.SH,轻工制造,惠达卫浴
603386.SH,电子,广东骏亚
603387.SH,医药生物,基蛋生物
603388.SH,建筑装饰,元成股份
603389.SH,轻工制造,亚振家居
603393.SH,公用事业,新天然气
603396.SH,电气设备,金辰股份
603398.SH,轻工制造,邦宝益智
603399.SH,有色金属,吉翔股份
603416.SH,电气设备,信捷电气
603421.SH,通信,鼎信通讯
603429.SH,轻工制造,集友股份
603444.SH,传媒,吉比特
603456.SH,医药生物,九洲药业
603458.SH,建筑装饰,勘设股份
603466.SH,建筑装饰,风语筑
603477.SH,纺织服装,振静股份
603486.SH,机械设备,科沃斯
603488.SH,电气设备,展鹏科技
603496.SH,计算机,恒为科技
603499.SH,轻工制造,翔港科技
603500.SH,机械设备,祥和实业
603501.SH,电子,韦尔股份
603505.SH,采掘,金石资源
603506.SH,房地产,南都物业
603507.SH,电气设备,振江股份
603508.SH,计算机,思维列控
603515.SH,电子,欧普照明
603516.SH,计算机,淳中科技
603517.SH,食品饮料,绝味食品
603518.SH,纺织服装,维格娜丝
603519.SH,家用电器,立霸股份
603520.SH,医药生物,司太立
603527.SH,有色金属,众源新材
603528.SH,汽车,多伦科技
603533.SH,传媒,掌阅科技
603535.SH,交通运输,嘉诚国际
603536.SH,食品饮料,惠发股份
603538.SH,医药生物,美诺华
603555.SH,纺织服装,贵人鸟
603556.SH,机械设备,海兴电力
603557.SH,纺织服装,起步股份
603558.SH,纺织服装,健盛集团
603559.SH,通信,中通国脉
603566.SH,农林牧渔,普莱柯
603567.SH,医药生物,珍宝岛
603568.SH,公用事业,伟明环保
603569.SH,交通运输,长久物流
603577.SH,电气设备,汇金通
603578.SH,家用电器,三星新材
603579.SH,家用电器,荣泰健康
603580.SH,化工,艾艾精工
603585.SH,化工,苏利股份
603586.SH,汽车,金麒麟
603587.SH,纺织服装,地素时尚
603588.SH,公用事业,高能环境
603589.SH,食品饮料,口子窖
603595.SH,电子,东尼电子
603596.SH,汽车,伯特利
603598.SH,传媒,引力传媒
603599.SH,化工,广信股份
603600.SH,轻工制造,永艺股份
603601.SH,化工,再升科技
603602.SH,通信,纵横通信
603603.SH,公用事业,博天环境
603605.SH,化工,珀莱雅
603606.SH,电气设备,东方电缆
603607.SH,轻工制造,京华激光
603608.SH,纺织服装,天创时尚
603609.SH,农林牧渔,禾丰牧业
603611.SH,机械设备,诺力股份
603612.SH,有色金属,索通发展
603615.SH,化工,茶花股份
603616.SH,建筑材料,韩建河山
603617.SH,机械设备,君禾股份
603618.SH,电气设备,杭电股份
603619.SH,采掘,中曼石油
603626.SH,机械设备,科森科技
603628.SH,电气设备,清源股份
603630.SH,化工,拉芳家化
603633.SH,电子,徕木股份
603636.SH,计算机,南威软件
603637.SH,建筑装饰,镇海股份
603638.SH,机械设备,艾迪精密
603639.SH,化工,海利尔
603648.SH,交通运输,畅联股份
603650.SH,化工,彤程新材
603655.SH,汽车,朗博科技
603656.SH,机械设备,泰禾光电
603657.SH,家用电器,春光科技
603658.SH,医药生物,安图生物
603659.SH,电子,璞泰来
603660.SH,计算机,苏州科达
603661.SH,轻工制造,恒林股份
603663.SH,有色金属,三祥新材
603665.SH,纺织服装,康隆达
603666.SH,机械设备,亿嘉和
603667.SH,机械设备,五洲新春
603668.SH,农林牧渔,天马科技
603669.SH,医药生物,灵康药业
603676.SH,医药生物,卫信康
603677.SH,家用电器,奇精机械
603678.SH,电子,火炬电子
603679.SH,电子,华体科技
603680.SH,机械设备,今创集团
603683.SH,化工,晶华新材
603685.SH,电子,晨丰科技
603686.SH,机械设备,龙马环卫
603688.SH,有色金属,石英股份
603689.SH,公用事业,皖天然气
603690.SH,机械设备,至纯科技
603693.SH,公用事业,江苏新能
603696.SH,食品饮料,安记食品
603698.SH,建筑装饰,航天工程
603699.SH,机械设备,纽威股份
603701.SH,汽车,德宏股份
603703.SH,通信,盛洋科技
603706.SH,公用事业,东方环宇
603707.SH,医药生物,健友股份
603708.SH,商业贸易,家家悦
603709.SH,轻工制造,中源家居
603711.SH,食品饮料,香飘飘
603712.SH,通信,七一二
603713.SH,交通运输,密尔克卫
603716.SH,医药生物,塞力斯
603717.SH,建筑装饰,天域生态
603718.SH,农林牧渔,海利生物
603721.SH,传媒,中广天择
603722.SH,化工,阿科力
603725.SH,建筑材料,天安新材
603726.SH,家用电器,朗迪集团
603727.SH,采掘,博迈科
603728.SH,电气设备,鸣志电器
603729.SH,传媒,龙韵股份
603730.SH,汽车,岱美股份
603733.SH,轻工制造,仙鹤股份
603737.SH,化工,三棵树
603738.SH,电子,泰晶科技
603757.SH,机械设备,大元泵业
603758.SH,汽车,秦安股份
603766.SH,汽车,隆鑫通用
603767.SH,汽车,中马传动
603768.SH,汽车,常青股份
603773.SH,电子,沃格光电
603776.SH,汽车,永安行
603777.SH,食品饮料,来伊份
603778.SH,建筑装饰,乾景园林
603779.SH,食品饮料,威龙股份
603787.SH,汽车,新日股份
603788.SH,汽车,宁波高发
603789.SH,机械设备,星光农机
603797.SH,公用事业,联泰环保
603798.SH,化工,康普顿
603799.SH,有色金属,华友钴业
603800.SH,机械设备,道森股份
603801.SH,轻工制造,志邦股份
603803.SH,通信,瑞斯康达
603806.SH,电气设备,福斯特
603808.SH,纺织服装,歌力思
603809.SH,汽车,豪能股份
603811.SH,医药生物,诚意药业
603813.SH,交通运输,原尚股份
603816.SH,轻工制造,顾家家居
603817.SH,公用事业,海峡环保
603818.SH,轻工制造,曲美家居
603819.SH,电气设备,神力股份
603822.SH,化工,嘉澳环保
603823.SH,化工,百合花
603825.SH,传媒,华扬联众
603826.SH,有色金属,坤彩科技
603828.SH,建筑装饰,柯利达
603829.SH,电气设备,洛凯股份
603833.SH,轻工制造,欧派家居
603838.SH,轻工制造,四通股份
603839.SH,纺织服装,安正时尚
603843.SH,建筑装饰,正平股份
603848.SH,轻工制造,好太太
603855.SH,机械设备,华荣股份
603856.SH,建筑材料,东宏股份
603858.SH,医药生物,步长制药
603859.SH,电气设备,能科股份
603860.SH,建筑装饰,中公高科
603861.SH,电气设备,白云电器
603866.SH,食品饮料,桃李面包
603868.SH,家用电器,飞科电器
603869.SH,休闲服务,新智认知
603871.SH,交通运输,嘉友国际
603876.SH,有色金属,鼎胜新材
603877.SH,纺织服装,太平鸟
603878.SH,钢铁,武进不锈
603879.SH,化工,永悦科技
603880.SH,医药生物,南卫股份
603881.SH,计算机,数据港
603882.SH,医药生物,金域医学
603883.SH,医药生物,老百姓
603885.SH,交通运输,吉祥航空
603886.SH,食品饮料,元祖股份
603887.SH,建筑装饰,城地股份
603888.SH,传媒,新华网
603889.SH,纺织服装,新澳股份
603890.SH,电子,春秋电子
603895.SH,机械设备,天永智能
603896.SH,医药生物,寿仙谷
603897.SH,电气设备,长城科技
603898.SH,轻工制造,好莱客
603899.SH,轻工制造,晨光文具
603900.SH,商业贸易,莱绅通灵
603901.SH,机械设备,永创智能
603903.SH,公用事业,中持股份
603906.SH,化工,龙蟠科技
603908.SH,纺织服装,牧高笛
603909.SH,建筑装饰,合诚股份
603912.SH,机械设备,佳力图
603916.SH,化工,苏博特
603917.SH,汽车,合力科技
603918.SH,计算机,金桥信息
603919.SH,食品饮料,金徽酒
603920.SH,电子,世运电路
603922.SH,汽车,金鸿顺
603926.SH,汽车,铁流股份
603928.SH,化工,兴业股份
603929.SH,建筑装饰,亚翔集成
603933.SH,电子,睿能科技
603936.SH,电子,博敏电子
603937.SH,建筑材料,丽岛新材
603938.SH,化工,三孚股份
603939.SH,医药生物,益丰药房
603955.SH,建筑装饰,大千生态
603958.SH,纺织服装,哈森股份
603959.SH,建筑装饰,百利科技
603960.SH,机械设备,克来机电
603963.SH,医药生物,大理药业
603966.SH,机械设备,法兰泰克
603968.SH,化工,醋化股份
603969.SH,机械设备,银龙股份
603970.SH,化工,中农立华
603976.SH,医药生物,正川股份
603977.SH,化工,国泰集团
603978.SH,有色金属,深圳新星
603979.SH,采掘,金诚信
603980.SH,化工,吉华集团
603985.SH,机械设备,恒润股份
603986.SH,电子,兆易创新
603987.SH,医药生物,康德莱
603988.SH,电气设备,中电电机
603989.SH,电子,艾华集团
603990.SH,计算机,麦迪科技
603991.SH,化工,至正股份
603993.SH,有色金属,洛阳钼业
603996.SH,家用电器,中新科技
603997.SH,汽车,继峰股份
603998.SH,医药生物,方盛制药
603999.SH,传媒,读者传媒
